(footprint "TE_282834-2" (version 20221018) (generator pcbnew)
  (layer "F.Cu")
  (fp_text reference "REF**" (at -3.02 -4.5) (layer "F.SilkS")
      (effects (font (size 1.1684 1.1684) (thickness 0.1016)) (justify left bottom))
    (tstamp e993cf1c-3a49-4858-bd46-7b396e7004c3)
  )
  (fp_text value "TE_282834-2" (at -3.02 4.5) (layer "F.Fab")
      (effects (font (size 1.1684 1.1684) (thickness 0.1016)) (justify left top))
    (tstamp f5f500c5-036a-41a7-b9ce-03e8983a98dc)
  )
  (fp_line (start -2.77 -3.25) (end 2.77 -3.25)
    (stroke (width 0.127) (type solid)) (layer "F.SilkS") (tstamp ac9f3d94-c4da-490c-8a15-2de7d74ced81))
  (fp_line (start -2.77 3.25) (end -2.77 -3.25)
    (stroke (width 0.127) (type solid)) (layer "F.SilkS") (tstamp d581a49f-b8e3-44b3-a04e-4c466e32f0d9))
  (fp_line (start 2.77 -3.25) (end 2.77 3.25)
    (stroke (width 0.127) (type solid)) (layer "F.SilkS") (tstamp 3efc3256-bba9-40c3-b2bc-ff804fb6cc71))
  (fp_line (start 2.77 3.25) (end -2.77 3.25)
    (stroke (width 0.127) (type solid)) (layer "F.SilkS") (tstamp d26a0a25-b940-43bc-bfa5-01e14e54b192))
  (fp_circle (center -3.52 0) (end -3.42 0)
    (stroke (width 0.2) (type solid)) (fill none) (layer "F.SilkS") (tstamp 905ec886-b77f-43e3-a1c4-53d39ba0fad6))
  (fp_line (start -3.02 -3.5) (end -3.02 3.5)
    (stroke (width 0.05) (type solid)) (layer "F.CrtYd") (tstamp c29215e6-393d-4da7-8e52-187041bf3458))
  (fp_line (start -3.02 3.5) (end 3.02 3.5)
    (stroke (width 0.05) (type solid)) (layer "F.CrtYd") (tstamp 9c7f6cfe-f25a-4b1f-a1ac-4b8365798c1a))
  (fp_line (start 3.02 -3.5) (end -3.02 -3.5)
    (stroke (width 0.05) (type solid)) (layer "F.CrtYd") (tstamp 0026bd9f-a1b0-43d4-b105-8ccfa3275daf))
  (fp_line (start 3.02 3.5) (end 3.02 -3.5)
    (stroke (width 0.05) (type solid)) (layer "F.CrtYd") (tstamp 5b703584-be4e-489b-be4e-848f8cf2b398))
  (fp_line (start -2.77 -3.25) (end 2.77 -3.25)
    (stroke (width 0.127) (type solid)) (layer "F.Fab") (tstamp 342eec64-8eb2-48de-9f2c-f9bc4559c178))
  (fp_line (start -2.77 3.25) (end -2.77 -3.25)
    (stroke (width 0.127) (type solid)) (layer "F.Fab") (tstamp 6387ba26-21f4-4939-967b-068f4ea2c0a3))
  (fp_line (start -1.82 -2.7) (end -1.82 -3.2)
    (stroke (width 0.127) (type solid)) (layer "F.Fab") (tstamp 354e39de-9634-45b7-b480-60721aeb23ed))
  (fp_line (start -1.82 -2.7) (end -0.72 -2.7)
    (stroke (width 0.127) (type solid)) (layer "F.Fab") (tstamp 04629f6f-36e7-4689-8ec6-dbdbf5291dab))
  (fp_line (start -0.72 -2.7) (end -0.72 -3.2)
    (stroke (width 0.127) (type solid)) (layer "F.Fab") (tstamp edabaacd-3807-48f7-a8e0-8ad65e5abfd0))
  (fp_line (start 0.72 -2.7) (end 0.72 -3.2)
    (stroke (width 0.127) (type solid)) (layer "F.Fab") (tstamp d0d281b8-d69f-4159-9ab6-1dbfb76193de))
  (fp_line (start 0.72 -2.7) (end 1.82 -2.7)
    (stroke (width 0.127) (type solid)) (layer "F.Fab") (tstamp 85e90c9d-076e-4f28-998c-b346e2c027ec))
  (fp_line (start 1.82 -2.7) (end 1.82 -3.2)
    (stroke (width 0.127) (type solid)) (layer "F.Fab") (tstamp 8d552afd-dcd5-4e9b-bfb5-89f68abc97a8))
  (fp_line (start 2.77 -3.25) (end 2.77 3.25)
    (stroke (width 0.127) (type solid)) (layer "F.Fab") (tstamp 18337e04-be5c-4983-af1e-c8b58acb7fab))
  (fp_line (start 2.77 3.25) (end -2.77 3.25)
    (stroke (width 0.127) (type solid)) (layer "F.Fab") (tstamp e4e69b37-31b1-4475-aa3f-a44883e9b58f))
  (fp_circle (center -3.52 0) (end -3.42 0)
    (stroke (width 0.2) (type solid)) (fill none) (layer "F.Fab") (tstamp 54fcd333-e5ca-4556-a907-4b3a67096720))
  (pad "1" thru_hole rect (at -1.27 0) (size 1.8 1.8) (drill 1.2) (layers "*.Cu" "*.Mask")
    (solder_mask_margin 0.0635) (thermal_bridge_angle 45) (tstamp f5ff5321-d822-4d0a-86f1-1cdffb1c827f))
  (pad "2" thru_hole circle (at 1.27 0) (size 1.8 1.8) (drill 1.2) (layers "*.Cu" "*.Mask")
    (solder_mask_margin 0.0635) (tstamp c649e4c5-d017-4af5-8e05-c1524b0b4829))
)
