%TF.GenerationSoftware,KiCad,Pcbnew,7.0.10-7.0.10~ubuntu22.04.1*%
%TF.CreationDate,2024-01-31T15:26:47-05:00*%
%TF.ProjectId,Lasers_Daughterboard_R3,4c617365-7273-45f4-9461-756768746572,rev?*%
%TF.SameCoordinates,Original*%
%TF.FileFunction,Copper,L2,Bot*%
%TF.FilePolarity,Positive*%
%FSLAX46Y46*%
G04 Gerber Fmt 4.6, Leading zero omitted, Abs format (unit mm)*
G04 Created by KiCad (PCBNEW 7.0.10-7.0.10~ubuntu22.04.1) date 2024-01-31 15:26:47*
%MOMM*%
%LPD*%
G01*
G04 APERTURE LIST*
%TA.AperFunction,ComponentPad*%
%ADD10R,1.700000X1.700000*%
%TD*%
%TA.AperFunction,ComponentPad*%
%ADD11O,1.700000X1.700000*%
%TD*%
G04 APERTURE END LIST*
D10*
%TO.P,J3,1,Pin_1*%
%TO.N,VCC_B*%
X165500000Y-110225000D03*
D11*
%TO.P,J3,2,Pin_2*%
%TO.N,GND*%
X165500000Y-112765000D03*
%TD*%
D10*
%TO.P,J8,1,Pin_1*%
%TO.N,VCC_A*%
X220500000Y-110265000D03*
D11*
%TO.P,J8,2,Pin_2*%
%TO.N,GND*%
X220500000Y-112805000D03*
%TD*%
D10*
%TO.P,J2,1,Pin_1*%
%TO.N,VCC_A*%
X161500000Y-107000000D03*
D11*
%TO.P,J2,2,Pin_2*%
%TO.N,GND*%
X161500000Y-109540000D03*
%TD*%
D10*
%TO.P,J4,1,Pin_1*%
%TO.N,VCC_B*%
X176500000Y-110265000D03*
D11*
%TO.P,J4,2,Pin_2*%
%TO.N,GND*%
X176500000Y-112805000D03*
%TD*%
D10*
%TO.P,J1,1,Pin_1*%
%TO.N,VCC_B*%
X161500000Y-113500000D03*
D11*
%TO.P,J1,2,Pin_2*%
%TO.N,GND*%
X161500000Y-116040000D03*
%TD*%
D10*
%TO.P,J7,1,Pin_1*%
%TO.N,VCC_A*%
X209500000Y-110225000D03*
D11*
%TO.P,J7,2,Pin_2*%
%TO.N,GND*%
X209500000Y-112765000D03*
%TD*%
D10*
%TO.P,J6,1,Pin_1*%
%TO.N,VCC_A*%
X198500000Y-110225000D03*
D11*
%TO.P,J6,2,Pin_2*%
%TO.N,GND*%
X198500000Y-112765000D03*
%TD*%
D10*
%TO.P,J5,1,Pin_1*%
%TO.N,VCC_B*%
X187500000Y-110265000D03*
D11*
%TO.P,J5,2,Pin_2*%
%TO.N,GND*%
X187500000Y-112805000D03*
%TD*%
%TA.AperFunction,Conductor*%
%TO.N,GND*%
G36*
X222984404Y-105095185D02*
G01*
X223005046Y-105111819D01*
X223888181Y-105994954D01*
X223921666Y-106056277D01*
X223924500Y-106082635D01*
X223924500Y-116917364D01*
X223904815Y-116984403D01*
X223888181Y-117005045D01*
X223005045Y-117888181D01*
X222943722Y-117921666D01*
X222917364Y-117924500D01*
X158082635Y-117924500D01*
X158015596Y-117904815D01*
X157994954Y-117888181D01*
X157111819Y-117005045D01*
X157078334Y-116943722D01*
X157075500Y-116917364D01*
X157075500Y-114374678D01*
X160399500Y-114374678D01*
X160414032Y-114447735D01*
X160414033Y-114447739D01*
X160414034Y-114447740D01*
X160469399Y-114530601D01*
X160552260Y-114585966D01*
X160552264Y-114585967D01*
X160625321Y-114600499D01*
X160625324Y-114600500D01*
X160625326Y-114600500D01*
X162374676Y-114600500D01*
X162374677Y-114600499D01*
X162447740Y-114585966D01*
X162530601Y-114530601D01*
X162585966Y-114447740D01*
X162600500Y-114374674D01*
X162600500Y-112625326D01*
X162600500Y-112625323D01*
X162600499Y-112625321D01*
X162585967Y-112552264D01*
X162585966Y-112552260D01*
X162530601Y-112469399D01*
X162447740Y-112414034D01*
X162447739Y-112414033D01*
X162447735Y-112414032D01*
X162374677Y-112399500D01*
X162374674Y-112399500D01*
X160625326Y-112399500D01*
X160625323Y-112399500D01*
X160552264Y-112414032D01*
X160552260Y-112414033D01*
X160469399Y-112469399D01*
X160414033Y-112552260D01*
X160414032Y-112552264D01*
X160399500Y-112625321D01*
X160399500Y-114374678D01*
X157075500Y-114374678D01*
X157075500Y-111099678D01*
X164399500Y-111099678D01*
X164414032Y-111172735D01*
X164414033Y-111172739D01*
X164414034Y-111172740D01*
X164469399Y-111255601D01*
X164552260Y-111310966D01*
X164552264Y-111310967D01*
X164625321Y-111325499D01*
X164625324Y-111325500D01*
X164625326Y-111325500D01*
X166374676Y-111325500D01*
X166374677Y-111325499D01*
X166447740Y-111310966D01*
X166530601Y-111255601D01*
X166585966Y-111172740D01*
X166592543Y-111139678D01*
X175399500Y-111139678D01*
X175414032Y-111212735D01*
X175414033Y-111212739D01*
X175414034Y-111212740D01*
X175469399Y-111295601D01*
X175514147Y-111325500D01*
X175552260Y-111350966D01*
X175552264Y-111350967D01*
X175625321Y-111365499D01*
X175625324Y-111365500D01*
X175625326Y-111365500D01*
X177374676Y-111365500D01*
X177374677Y-111365499D01*
X177447740Y-111350966D01*
X177530601Y-111295601D01*
X177585966Y-111212740D01*
X177600499Y-111139678D01*
X186399500Y-111139678D01*
X186414032Y-111212735D01*
X186414033Y-111212739D01*
X186414034Y-111212740D01*
X186469399Y-111295601D01*
X186514147Y-111325500D01*
X186552260Y-111350966D01*
X186552264Y-111350967D01*
X186625321Y-111365499D01*
X186625324Y-111365500D01*
X186625326Y-111365500D01*
X188374676Y-111365500D01*
X188374677Y-111365499D01*
X188447740Y-111350966D01*
X188530601Y-111295601D01*
X188585966Y-111212740D01*
X188600500Y-111139674D01*
X188600500Y-111099678D01*
X197399500Y-111099678D01*
X197414032Y-111172735D01*
X197414033Y-111172739D01*
X197414034Y-111172740D01*
X197469399Y-111255601D01*
X197552260Y-111310966D01*
X197552264Y-111310967D01*
X197625321Y-111325499D01*
X197625324Y-111325500D01*
X197625326Y-111325500D01*
X199374676Y-111325500D01*
X199374677Y-111325499D01*
X199447740Y-111310966D01*
X199530601Y-111255601D01*
X199585966Y-111172740D01*
X199600499Y-111099678D01*
X208399500Y-111099678D01*
X208414032Y-111172735D01*
X208414033Y-111172739D01*
X208414034Y-111172740D01*
X208469399Y-111255601D01*
X208552260Y-111310966D01*
X208552264Y-111310967D01*
X208625321Y-111325499D01*
X208625324Y-111325500D01*
X208625326Y-111325500D01*
X210374676Y-111325500D01*
X210374677Y-111325499D01*
X210447740Y-111310966D01*
X210530601Y-111255601D01*
X210585966Y-111172740D01*
X210592543Y-111139678D01*
X219399500Y-111139678D01*
X219414032Y-111212735D01*
X219414033Y-111212739D01*
X219414034Y-111212740D01*
X219469399Y-111295601D01*
X219514147Y-111325500D01*
X219552260Y-111350966D01*
X219552264Y-111350967D01*
X219625321Y-111365499D01*
X219625324Y-111365500D01*
X219625326Y-111365500D01*
X221374676Y-111365500D01*
X221374677Y-111365499D01*
X221447740Y-111350966D01*
X221530601Y-111295601D01*
X221585966Y-111212740D01*
X221600500Y-111139674D01*
X221600500Y-109390326D01*
X221600500Y-109390323D01*
X221600499Y-109390321D01*
X221585967Y-109317264D01*
X221585966Y-109317260D01*
X221559239Y-109277260D01*
X221530601Y-109234399D01*
X221447740Y-109179034D01*
X221447739Y-109179033D01*
X221447735Y-109179032D01*
X221374677Y-109164500D01*
X221374674Y-109164500D01*
X219625326Y-109164500D01*
X219625323Y-109164500D01*
X219552264Y-109179032D01*
X219552260Y-109179033D01*
X219469399Y-109234399D01*
X219414033Y-109317260D01*
X219414032Y-109317264D01*
X219399500Y-109390321D01*
X219399500Y-111139678D01*
X210592543Y-111139678D01*
X210600500Y-111099674D01*
X210600500Y-109350326D01*
X210600500Y-109350323D01*
X210600499Y-109350321D01*
X210585967Y-109277264D01*
X210585966Y-109277260D01*
X210530601Y-109194399D01*
X210447740Y-109139034D01*
X210447739Y-109139033D01*
X210447735Y-109139032D01*
X210374677Y-109124500D01*
X210374674Y-109124500D01*
X208625326Y-109124500D01*
X208625323Y-109124500D01*
X208552264Y-109139032D01*
X208552260Y-109139033D01*
X208469399Y-109194399D01*
X208414033Y-109277260D01*
X208414032Y-109277264D01*
X208399500Y-109350321D01*
X208399500Y-111099678D01*
X199600499Y-111099678D01*
X199600500Y-111099674D01*
X199600500Y-109350326D01*
X199600500Y-109350323D01*
X199600499Y-109350321D01*
X199585967Y-109277264D01*
X199585966Y-109277260D01*
X199530601Y-109194399D01*
X199447740Y-109139034D01*
X199447739Y-109139033D01*
X199447735Y-109139032D01*
X199374677Y-109124500D01*
X199374674Y-109124500D01*
X197625326Y-109124500D01*
X197625323Y-109124500D01*
X197552264Y-109139032D01*
X197552260Y-109139033D01*
X197469399Y-109194399D01*
X197414033Y-109277260D01*
X197414032Y-109277264D01*
X197399500Y-109350321D01*
X197399500Y-111099678D01*
X188600500Y-111099678D01*
X188600500Y-109390326D01*
X188600500Y-109390323D01*
X188600499Y-109390321D01*
X188585967Y-109317264D01*
X188585966Y-109317260D01*
X188559239Y-109277260D01*
X188530601Y-109234399D01*
X188447740Y-109179034D01*
X188447739Y-109179033D01*
X188447735Y-109179032D01*
X188374677Y-109164500D01*
X188374674Y-109164500D01*
X186625326Y-109164500D01*
X186625323Y-109164500D01*
X186552264Y-109179032D01*
X186552260Y-109179033D01*
X186469399Y-109234399D01*
X186414033Y-109317260D01*
X186414032Y-109317264D01*
X186399500Y-109390321D01*
X186399500Y-111139678D01*
X177600499Y-111139678D01*
X177600500Y-111139674D01*
X177600500Y-109390326D01*
X177600500Y-109390323D01*
X177600499Y-109390321D01*
X177585967Y-109317264D01*
X177585966Y-109317260D01*
X177559239Y-109277260D01*
X177530601Y-109234399D01*
X177447740Y-109179034D01*
X177447739Y-109179033D01*
X177447735Y-109179032D01*
X177374677Y-109164500D01*
X177374674Y-109164500D01*
X175625326Y-109164500D01*
X175625323Y-109164500D01*
X175552264Y-109179032D01*
X175552260Y-109179033D01*
X175469399Y-109234399D01*
X175414033Y-109317260D01*
X175414032Y-109317264D01*
X175399500Y-109390321D01*
X175399500Y-111139678D01*
X166592543Y-111139678D01*
X166600500Y-111099674D01*
X166600500Y-109350326D01*
X166600500Y-109350323D01*
X166600499Y-109350321D01*
X166585967Y-109277264D01*
X166585966Y-109277260D01*
X166530601Y-109194399D01*
X166447740Y-109139034D01*
X166447739Y-109139033D01*
X166447735Y-109139032D01*
X166374677Y-109124500D01*
X166374674Y-109124500D01*
X164625326Y-109124500D01*
X164625323Y-109124500D01*
X164552264Y-109139032D01*
X164552260Y-109139033D01*
X164469399Y-109194399D01*
X164414033Y-109277260D01*
X164414032Y-109277264D01*
X164399500Y-109350321D01*
X164399500Y-111099678D01*
X157075500Y-111099678D01*
X157075500Y-107874678D01*
X160399500Y-107874678D01*
X160414032Y-107947735D01*
X160414033Y-107947739D01*
X160414034Y-107947740D01*
X160469399Y-108030601D01*
X160552260Y-108085966D01*
X160552264Y-108085967D01*
X160625321Y-108100499D01*
X160625324Y-108100500D01*
X160625326Y-108100500D01*
X162374676Y-108100500D01*
X162374677Y-108100499D01*
X162447740Y-108085966D01*
X162530601Y-108030601D01*
X162585966Y-107947740D01*
X162600500Y-107874674D01*
X162600500Y-106125326D01*
X162600500Y-106125323D01*
X162600499Y-106125321D01*
X162585967Y-106052264D01*
X162585966Y-106052260D01*
X162566953Y-106023805D01*
X162530601Y-105969399D01*
X162472262Y-105930419D01*
X162447739Y-105914033D01*
X162447735Y-105914032D01*
X162374677Y-105899500D01*
X162374674Y-105899500D01*
X160625326Y-105899500D01*
X160625323Y-105899500D01*
X160552264Y-105914032D01*
X160552260Y-105914033D01*
X160469399Y-105969399D01*
X160414033Y-106052260D01*
X160414032Y-106052264D01*
X160399500Y-106125321D01*
X160399500Y-107874678D01*
X157075500Y-107874678D01*
X157075500Y-106082635D01*
X157095185Y-106015596D01*
X157111819Y-105994954D01*
X157994954Y-105111819D01*
X158056277Y-105078334D01*
X158082635Y-105075500D01*
X222917365Y-105075500D01*
X222984404Y-105095185D01*
G37*
%TD.AperFunction*%
%TD*%
M02*
