%TF.GenerationSoftware,KiCad,Pcbnew,7.0.8-7.0.8~ubuntu22.04.1*%
%TF.CreationDate,2023-10-24T16:19:06-04:00*%
%TF.ProjectId,Lasers_Daughterboard_R2,4c617365-7273-45f4-9461-756768746572,rev?*%
%TF.SameCoordinates,Original*%
%TF.FileFunction,Copper,L2,Bot*%
%TF.FilePolarity,Positive*%
%FSLAX46Y46*%
G04 Gerber Fmt 4.6, Leading zero omitted, Abs format (unit mm)*
G04 Created by KiCad (PCBNEW 7.0.8-7.0.8~ubuntu22.04.1) date 2023-10-24 16:19:06*
%MOMM*%
%LPD*%
G01*
G04 APERTURE LIST*
%TA.AperFunction,ComponentPad*%
%ADD10R,1.700000X1.700000*%
%TD*%
%TA.AperFunction,ComponentPad*%
%ADD11O,1.700000X1.700000*%
%TD*%
G04 APERTURE END LIST*
D10*
%TO.P,J3,1,Pin_1*%
%TO.N,VCC_B*%
X163500000Y-113460000D03*
D11*
%TO.P,J3,2,Pin_2*%
%TO.N,GND*%
X163500000Y-116000000D03*
%TD*%
D10*
%TO.P,J8,1,Pin_1*%
%TO.N,VCC_A*%
X216000000Y-113500000D03*
D11*
%TO.P,J8,2,Pin_2*%
%TO.N,GND*%
X216000000Y-116040000D03*
%TD*%
D10*
%TO.P,J2,1,Pin_1*%
%TO.N,VCC_A*%
X220000000Y-113500000D03*
D11*
%TO.P,J2,2,Pin_2*%
%TO.N,GND*%
X220000000Y-116040000D03*
%TD*%
D10*
%TO.P,J4,1,Pin_1*%
%TO.N,VCC_B*%
X173500000Y-113500000D03*
D11*
%TO.P,J4,2,Pin_2*%
%TO.N,GND*%
X173500000Y-116040000D03*
%TD*%
D10*
%TO.P,J1,1,Pin_1*%
%TO.N,VCC_B*%
X159500000Y-113500000D03*
D11*
%TO.P,J1,2,Pin_2*%
%TO.N,GND*%
X159500000Y-116040000D03*
%TD*%
D10*
%TO.P,J7,1,Pin_1*%
%TO.N,VCC_A*%
X207000000Y-113500000D03*
D11*
%TO.P,J7,2,Pin_2*%
%TO.N,GND*%
X207000000Y-116040000D03*
%TD*%
D10*
%TO.P,J6,1,Pin_1*%
%TO.N,VCC_A*%
X197000000Y-113500000D03*
D11*
%TO.P,J6,2,Pin_2*%
%TO.N,GND*%
X197000000Y-116040000D03*
%TD*%
D10*
%TO.P,J5,1,Pin_1*%
%TO.N,VCC_B*%
X184500000Y-113500000D03*
D11*
%TO.P,J5,2,Pin_2*%
%TO.N,GND*%
X184500000Y-116040000D03*
%TD*%
%TA.AperFunction,Conductor*%
%TO.N,GND*%
G36*
X220984404Y-111095185D02*
G01*
X221005046Y-111111819D01*
X221888181Y-111994954D01*
X221921666Y-112056277D01*
X221924500Y-112082635D01*
X221924500Y-116917364D01*
X221904815Y-116984403D01*
X221888181Y-117005045D01*
X221005045Y-117888181D01*
X220943722Y-117921666D01*
X220917364Y-117924500D01*
X158082635Y-117924500D01*
X158015596Y-117904815D01*
X157994954Y-117888181D01*
X157111819Y-117005045D01*
X157078334Y-116943722D01*
X157075500Y-116917364D01*
X157075500Y-114374678D01*
X158399500Y-114374678D01*
X158414032Y-114447735D01*
X158414033Y-114447739D01*
X158414034Y-114447740D01*
X158469399Y-114530601D01*
X158514147Y-114560500D01*
X158552260Y-114585966D01*
X158552264Y-114585967D01*
X158625321Y-114600499D01*
X158625324Y-114600500D01*
X158625326Y-114600500D01*
X160374676Y-114600500D01*
X160374677Y-114600499D01*
X160447740Y-114585966D01*
X160530601Y-114530601D01*
X160585966Y-114447740D01*
X160600500Y-114374674D01*
X160600500Y-114334678D01*
X162399500Y-114334678D01*
X162414032Y-114407735D01*
X162414033Y-114407739D01*
X162414034Y-114407740D01*
X162469399Y-114490601D01*
X162552260Y-114545966D01*
X162552264Y-114545967D01*
X162625321Y-114560499D01*
X162625324Y-114560500D01*
X162625326Y-114560500D01*
X164374676Y-114560500D01*
X164374677Y-114560499D01*
X164447740Y-114545966D01*
X164530601Y-114490601D01*
X164585966Y-114407740D01*
X164592543Y-114374678D01*
X172399500Y-114374678D01*
X172414032Y-114447735D01*
X172414033Y-114447739D01*
X172414034Y-114447740D01*
X172469399Y-114530601D01*
X172514147Y-114560500D01*
X172552260Y-114585966D01*
X172552264Y-114585967D01*
X172625321Y-114600499D01*
X172625324Y-114600500D01*
X172625326Y-114600500D01*
X174374676Y-114600500D01*
X174374677Y-114600499D01*
X174447740Y-114585966D01*
X174530601Y-114530601D01*
X174585966Y-114447740D01*
X174600499Y-114374678D01*
X183399500Y-114374678D01*
X183414032Y-114447735D01*
X183414033Y-114447739D01*
X183414034Y-114447740D01*
X183469399Y-114530601D01*
X183514147Y-114560500D01*
X183552260Y-114585966D01*
X183552264Y-114585967D01*
X183625321Y-114600499D01*
X183625324Y-114600500D01*
X183625326Y-114600500D01*
X185374676Y-114600500D01*
X185374677Y-114600499D01*
X185447740Y-114585966D01*
X185530601Y-114530601D01*
X185585966Y-114447740D01*
X185600499Y-114374678D01*
X195899500Y-114374678D01*
X195914032Y-114447735D01*
X195914033Y-114447739D01*
X195914034Y-114447740D01*
X195969399Y-114530601D01*
X196014147Y-114560500D01*
X196052260Y-114585966D01*
X196052264Y-114585967D01*
X196125321Y-114600499D01*
X196125324Y-114600500D01*
X196125326Y-114600500D01*
X197874676Y-114600500D01*
X197874677Y-114600499D01*
X197947740Y-114585966D01*
X198030601Y-114530601D01*
X198085966Y-114447740D01*
X198100499Y-114374678D01*
X205899500Y-114374678D01*
X205914032Y-114447735D01*
X205914033Y-114447739D01*
X205914034Y-114447740D01*
X205969399Y-114530601D01*
X206014147Y-114560500D01*
X206052260Y-114585966D01*
X206052264Y-114585967D01*
X206125321Y-114600499D01*
X206125324Y-114600500D01*
X206125326Y-114600500D01*
X207874676Y-114600500D01*
X207874677Y-114600499D01*
X207947740Y-114585966D01*
X208030601Y-114530601D01*
X208085966Y-114447740D01*
X208100499Y-114374678D01*
X214899500Y-114374678D01*
X214914032Y-114447735D01*
X214914033Y-114447739D01*
X214914034Y-114447740D01*
X214969399Y-114530601D01*
X215014147Y-114560500D01*
X215052260Y-114585966D01*
X215052264Y-114585967D01*
X215125321Y-114600499D01*
X215125324Y-114600500D01*
X215125326Y-114600500D01*
X216874676Y-114600500D01*
X216874677Y-114600499D01*
X216947740Y-114585966D01*
X217030601Y-114530601D01*
X217085966Y-114447740D01*
X217100499Y-114374678D01*
X218899500Y-114374678D01*
X218914032Y-114447735D01*
X218914033Y-114447739D01*
X218914034Y-114447740D01*
X218969399Y-114530601D01*
X219014147Y-114560500D01*
X219052260Y-114585966D01*
X219052264Y-114585967D01*
X219125321Y-114600499D01*
X219125324Y-114600500D01*
X219125326Y-114600500D01*
X220874676Y-114600500D01*
X220874677Y-114600499D01*
X220947740Y-114585966D01*
X221030601Y-114530601D01*
X221085966Y-114447740D01*
X221100500Y-114374674D01*
X221100500Y-112625326D01*
X221100500Y-112625323D01*
X221100499Y-112625321D01*
X221085967Y-112552264D01*
X221085966Y-112552260D01*
X221059239Y-112512260D01*
X221030601Y-112469399D01*
X220947740Y-112414034D01*
X220947739Y-112414033D01*
X220947735Y-112414032D01*
X220874677Y-112399500D01*
X220874674Y-112399500D01*
X219125326Y-112399500D01*
X219125323Y-112399500D01*
X219052264Y-112414032D01*
X219052260Y-112414033D01*
X218969399Y-112469399D01*
X218914033Y-112552260D01*
X218914032Y-112552264D01*
X218899500Y-112625321D01*
X218899500Y-114374678D01*
X217100499Y-114374678D01*
X217100500Y-114374674D01*
X217100500Y-112625326D01*
X217100500Y-112625323D01*
X217100499Y-112625321D01*
X217085967Y-112552264D01*
X217085966Y-112552260D01*
X217059239Y-112512260D01*
X217030601Y-112469399D01*
X216947740Y-112414034D01*
X216947739Y-112414033D01*
X216947735Y-112414032D01*
X216874677Y-112399500D01*
X216874674Y-112399500D01*
X215125326Y-112399500D01*
X215125323Y-112399500D01*
X215052264Y-112414032D01*
X215052260Y-112414033D01*
X214969399Y-112469399D01*
X214914033Y-112552260D01*
X214914032Y-112552264D01*
X214899500Y-112625321D01*
X214899500Y-114374678D01*
X208100499Y-114374678D01*
X208100500Y-114374674D01*
X208100500Y-112625326D01*
X208100500Y-112625323D01*
X208100499Y-112625321D01*
X208085967Y-112552264D01*
X208085966Y-112552260D01*
X208059239Y-112512260D01*
X208030601Y-112469399D01*
X207947740Y-112414034D01*
X207947739Y-112414033D01*
X207947735Y-112414032D01*
X207874677Y-112399500D01*
X207874674Y-112399500D01*
X206125326Y-112399500D01*
X206125323Y-112399500D01*
X206052264Y-112414032D01*
X206052260Y-112414033D01*
X205969399Y-112469399D01*
X205914033Y-112552260D01*
X205914032Y-112552264D01*
X205899500Y-112625321D01*
X205899500Y-114374678D01*
X198100499Y-114374678D01*
X198100500Y-114374674D01*
X198100500Y-112625326D01*
X198100500Y-112625323D01*
X198100499Y-112625321D01*
X198085967Y-112552264D01*
X198085966Y-112552260D01*
X198059239Y-112512260D01*
X198030601Y-112469399D01*
X197947740Y-112414034D01*
X197947739Y-112414033D01*
X197947735Y-112414032D01*
X197874677Y-112399500D01*
X197874674Y-112399500D01*
X196125326Y-112399500D01*
X196125323Y-112399500D01*
X196052264Y-112414032D01*
X196052260Y-112414033D01*
X195969399Y-112469399D01*
X195914033Y-112552260D01*
X195914032Y-112552264D01*
X195899500Y-112625321D01*
X195899500Y-114374678D01*
X185600499Y-114374678D01*
X185600500Y-114374674D01*
X185600500Y-112625326D01*
X185600500Y-112625323D01*
X185600499Y-112625321D01*
X185585967Y-112552264D01*
X185585966Y-112552260D01*
X185559239Y-112512260D01*
X185530601Y-112469399D01*
X185447740Y-112414034D01*
X185447739Y-112414033D01*
X185447735Y-112414032D01*
X185374677Y-112399500D01*
X185374674Y-112399500D01*
X183625326Y-112399500D01*
X183625323Y-112399500D01*
X183552264Y-112414032D01*
X183552260Y-112414033D01*
X183469399Y-112469399D01*
X183414033Y-112552260D01*
X183414032Y-112552264D01*
X183399500Y-112625321D01*
X183399500Y-114374678D01*
X174600499Y-114374678D01*
X174600500Y-114374674D01*
X174600500Y-112625326D01*
X174600500Y-112625323D01*
X174600499Y-112625321D01*
X174585967Y-112552264D01*
X174585966Y-112552260D01*
X174559239Y-112512260D01*
X174530601Y-112469399D01*
X174447740Y-112414034D01*
X174447739Y-112414033D01*
X174447735Y-112414032D01*
X174374677Y-112399500D01*
X174374674Y-112399500D01*
X172625326Y-112399500D01*
X172625323Y-112399500D01*
X172552264Y-112414032D01*
X172552260Y-112414033D01*
X172469399Y-112469399D01*
X172414033Y-112552260D01*
X172414032Y-112552264D01*
X172399500Y-112625321D01*
X172399500Y-114374678D01*
X164592543Y-114374678D01*
X164600500Y-114334674D01*
X164600500Y-112585326D01*
X164600500Y-112585323D01*
X164600499Y-112585321D01*
X164585967Y-112512264D01*
X164585966Y-112512260D01*
X164530601Y-112429399D01*
X164447740Y-112374034D01*
X164447739Y-112374033D01*
X164447735Y-112374032D01*
X164374677Y-112359500D01*
X164374674Y-112359500D01*
X162625326Y-112359500D01*
X162625323Y-112359500D01*
X162552264Y-112374032D01*
X162552260Y-112374033D01*
X162469399Y-112429399D01*
X162414033Y-112512260D01*
X162414032Y-112512264D01*
X162399500Y-112585321D01*
X162399500Y-114334678D01*
X160600500Y-114334678D01*
X160600500Y-112625326D01*
X160600500Y-112625323D01*
X160600499Y-112625321D01*
X160585967Y-112552264D01*
X160585966Y-112552260D01*
X160559239Y-112512260D01*
X160530601Y-112469399D01*
X160447740Y-112414034D01*
X160447739Y-112414033D01*
X160447735Y-112414032D01*
X160374677Y-112399500D01*
X160374674Y-112399500D01*
X158625326Y-112399500D01*
X158625323Y-112399500D01*
X158552264Y-112414032D01*
X158552260Y-112414033D01*
X158469399Y-112469399D01*
X158414033Y-112552260D01*
X158414032Y-112552264D01*
X158399500Y-112625321D01*
X158399500Y-114374678D01*
X157075500Y-114374678D01*
X157075500Y-112082635D01*
X157095185Y-112015596D01*
X157111819Y-111994954D01*
X157994954Y-111111819D01*
X158056277Y-111078334D01*
X158082635Y-111075500D01*
X220917365Y-111075500D01*
X220984404Y-111095185D01*
G37*
%TD.AperFunction*%
%TD*%
M02*
