<!--This work is licensed under a Creative Commons Attribution-ShareAlike 4.0 International License (CC BY-SA) with Design Exception 1.0-->
<eagle version="7.1.0">
<drawing>
<settings>
<setting alwaysvectorfont="no"/>
<setting verticaltext="up"/>
</settings>
<grid distance="0.1" unitdist="inch" unit="inch" style="lines" multiple="1" display="no" altdistance="0.01" altunitdist="inch" altunit="inch"/>
<layers>
<layer number="1" name="Top" color="4" fill="1" visible="yes" active="yes"/>
<layer number="16" name="Bottom" color="1" fill="1" visible="yes" active="yes"/>
<layer number="17" name="Pads" color="2" fill="1" visible="yes" active="yes"/>
<layer number="18" name="Vias" color="2" fill="1" visible="yes" active="yes"/>
<layer number="19" name="Unrouted" color="6" fill="1" visible="yes" active="yes"/>
<layer number="20" name="Dimension" color="15" fill="1" visible="yes" active="yes"/>
<layer number="21" name="tPlace" color="7" fill="1" visible="yes" active="yes"/>
<layer number="22" name="bPlace" color="7" fill="1" visible="yes" active="yes"/>
<layer number="23" name="tOrigins" color="15" fill="1" visible="yes" active="yes"/>
<layer number="24" name="bOrigins" color="15" fill="1" visible="yes" active="yes"/>
<layer number="25" name="tNames" color="7" fill="1" visible="yes" active="yes"/>
<layer number="26" name="bNames" color="7" fill="1" visible="yes" active="yes"/>
<layer number="27" name="tValues" color="7" fill="1" visible="yes" active="yes"/>
<layer number="28" name="bValues" color="7" fill="1" visible="yes" active="yes"/>
<layer number="29" name="tStop" color="7" fill="3" visible="yes" active="yes"/>
<layer number="30" name="bStop" color="7" fill="6" visible="no" active="yes"/>
<layer number="31" name="tCream" color="7" fill="4" visible="yes" active="yes"/>
<layer number="32" name="bCream" color="7" fill="5" visible="no" active="yes"/>
<layer number="33" name="tFinish" color="6" fill="3" visible="no" active="yes"/>
<layer number="34" name="bFinish" color="6" fill="6" visible="no" active="yes"/>
<layer number="35" name="tGlue" color="7" fill="4" visible="no" active="yes"/>
<layer number="36" name="bGlue" color="7" fill="5" visible="no" active="yes"/>
<layer number="37" name="tTest" color="7" fill="1" visible="no" active="yes"/>
<layer number="38" name="bTest" color="7" fill="1" visible="no" active="yes"/>
<layer number="39" name="tKeepout" color="4" fill="11" visible="yes" active="yes"/>
<layer number="40" name="bKeepout" color="1" fill="11" visible="yes" active="yes"/>
<layer number="41" name="tRestrict" color="4" fill="10" visible="yes" active="yes"/>
<layer number="42" name="bRestrict" color="1" fill="10" visible="yes" active="yes"/>
<layer number="43" name="vRestrict" color="2" fill="10" visible="yes" active="yes"/>
<layer number="44" name="Drills" color="7" fill="1" visible="no" active="yes"/>
<layer number="45" name="Holes" color="7" fill="1" visible="no" active="yes"/>
<layer number="46" name="Milling" color="3" fill="1" visible="no" active="yes"/>
<layer number="47" name="Measures" color="7" fill="1" visible="no" active="yes"/>
<layer number="48" name="Document" color="7" fill="1" visible="yes" active="yes"/>
<layer number="49" name="Reference" color="7" fill="1" visible="yes" active="yes"/>
<layer number="51" name="tDocu" color="7" fill="1" visible="yes" active="yes"/>
<layer number="52" name="bDocu" color="7" fill="1" visible="yes" active="yes"/>
<layer number="90" name="Modules" color="5" fill="1" visible="yes" active="yes"/>
<layer number="91" name="Nets" color="2" fill="1" visible="yes" active="yes"/>
<layer number="92" name="Busses" color="1" fill="1" visible="yes" active="yes"/>
<layer number="93" name="Pins" color="2" fill="1" visible="yes" active="yes"/>
<layer number="94" name="Symbols" color="4" fill="1" visible="yes" active="yes"/>
<layer number="95" name="Names" color="7" fill="1" visible="yes" active="yes"/>
<layer number="96" name="Values" color="7" fill="1" visible="yes" active="yes"/>
<layer number="97" name="Info" color="7" fill="1" visible="yes" active="yes"/>
<layer number="98" name="Guide" color="6" fill="1" visible="yes" active="yes"/>
</layers>
<library>
<packages>
<package name="TO-220-3">
<wire x1="5.08" y1="1.397" x2="4.953" y2="-1.524" width="0.127" layer="21"/>
<wire x1="4.699" y1="-1.778" x2="4.953" y2="-1.524" width="0.127" layer="21"/>
<wire x1="4.699" y1="-1.778" x2="-4.699" y2="-1.778" width="0.127" layer="21"/>
<wire x1="-4.953" y1="-1.524" x2="-4.699" y2="-1.778" width="0.127" layer="21"/>
<wire x1="-4.953" y1="-1.524" x2="-5.08" y2="1.397" width="0.127" layer="21"/>
<circle x="-4.4958" y="0.1016" radius="0.254" width="0" layer="21"/>
<text x="-5.88722" y="3.19872" size="1.27156" layer="25" ratio="10">&gt;NAME</text>
<text x="-5.8847" y="-3.68294" size="1.27102" layer="27" ratio="10">&gt;VALUE</text>
<rectangle x1="-5.34448" y1="1.78149" x2="5.334" y2="2.54" layer="21"/>
<rectangle x1="-5.34439" y1="1.27247" x2="-3.429" y2="1.778" layer="21"/>
<rectangle x1="-1.65385" y1="1.2722" x2="-0.889" y2="1.778" layer="21"/>
<rectangle x1="-3.43198" y1="1.27111" x2="-1.651" y2="1.778" layer="51"/>
<rectangle x1="0.889547" y1="1.27078" x2="1.651" y2="1.778" layer="21"/>
<rectangle x1="3.43346" y1="1.27165" x2="5.334" y2="1.778" layer="21"/>
<rectangle x1="-0.889388" y1="1.27055" x2="0.889" y2="1.778" layer="51"/>
<rectangle x1="1.65333" y1="1.27179" x2="3.429" y2="1.778" layer="51"/>
<wire x1="-5.75" y1="3" x2="5.75" y2="3" width="0.127" layer="39"/>
<wire x1="5.75" y1="3" x2="5.75" y2="-2.25" width="0.127" layer="39"/>
<wire x1="5.75" y1="-2.25" x2="-5.75" y2="-2.25" width="0.127" layer="39"/>
<wire x1="-5.75" y1="-2.25" x2="-5.75" y2="3" width="0.127" layer="39"/>
<pad name="1" x="-2.54" y="0" drill="1.3" diameter="1.95" shape="square" rot="R90"/>
<pad name="2" x="0" y="0" drill="1.3" diameter="1.95" rot="R90"/>
<pad name="3" x="2.54" y="0" drill="1.3" diameter="1.95" rot="R90"/>
</package>
</packages>
<symbols>
<symbol name="IRF520NPBF">
<wire x1="0.762" y1="0.762" x2="0.762" y2="0" width="0.254" layer="94"/>
<wire x1="0.762" y1="0" x2="0.762" y2="-0.762" width="0.254" layer="94"/>
<wire x1="0.762" y1="3.175" x2="0.762" y2="2.54" width="0.254" layer="94"/>
<wire x1="0.762" y1="2.54" x2="0.762" y2="1.905" width="0.254" layer="94"/>
<wire x1="0.762" y1="0" x2="2.54" y2="0" width="0.1524" layer="94"/>
<wire x1="2.54" y1="0" x2="2.54" y2="-2.54" width="0.1524" layer="94"/>
<wire x1="0.762" y1="-1.905" x2="0.762" y2="-2.54" width="0.254" layer="94"/>
<wire x1="0.762" y1="-2.54" x2="0.762" y2="-3.175" width="0.254" layer="94"/>
<wire x1="0" y1="2.54" x2="0" y2="-2.54" width="0.254" layer="94"/>
<wire x1="2.54" y1="-2.54" x2="0.762" y2="-2.54" width="0.1524" layer="94"/>
<wire x1="3.81" y1="2.54" x2="3.81" y2="0.508" width="0.1524" layer="94"/>
<wire x1="3.81" y1="0.508" x2="3.81" y2="-2.54" width="0.1524" layer="94"/>
<wire x1="2.54" y1="-2.54" x2="3.81" y2="-2.54" width="0.1524" layer="94"/>
<wire x1="0.762" y1="2.54" x2="2.54" y2="2.54" width="0.1524" layer="94"/>
<wire x1="2.54" y1="2.54" x2="3.81" y2="2.54" width="0.1524" layer="94"/>
<wire x1="4.572" y1="0.762" x2="4.318" y2="0.508" width="0.1524" layer="94"/>
<wire x1="4.318" y1="0.508" x2="3.81" y2="0.508" width="0.1524" layer="94"/>
<wire x1="3.81" y1="0.508" x2="3.302" y2="0.508" width="0.1524" layer="94"/>
<wire x1="3.302" y1="0.508" x2="3.048" y2="0.254" width="0.1524" layer="94"/>
<circle x="2.54" y="-2.54" radius="0.3592" width="0" layer="94"/>
<circle x="2.54" y="2.54" radius="0.3592" width="0" layer="94"/>
<text x="6.35339" y="-2.54136" size="1.77895" layer="96">&gt;VALUE</text>
<text x="6.3558" y="0" size="1.77963" layer="95">&gt;NAME</text>
<polygon width="0.1524" layer="94">
<vertex x="3.81" y="0.508"/>
<vertex x="3.302" y="-0.254"/>
<vertex x="4.318" y="-0.254"/>
</polygon>
<polygon width="0.1524" layer="94">
<vertex x="1.016" y="0"/>
<vertex x="2.032" y="0.762"/>
<vertex x="2.032" y="-0.762"/>
</polygon>
<wire x1="-2.54" y1="-2.54" x2="0" y2="-2.54" width="0.254" layer="94"/>
<wire x1="2.54" y1="5.08" x2="2.54" y2="2.54" width="0.254" layer="94"/>
<wire x1="2.54" y1="-2.54" x2="2.54" y2="-5.08" width="0.254" layer="94"/>
<pin name="S" x="2.54" y="-7.62" length="short" direction="pas" rot="R90"/>
<pin name="G" x="-5.08" y="-2.54" length="short" direction="pas"/>
<pin name="D" x="2.54" y="7.62" length="short" direction="pas" rot="R270"/>
</symbol>
</symbols>
<devicesets>
<deviceset name="IRF520NPBF" prefix="Q">
<description>MOSFET, Power; N-Ch; VDSS 100V; RDS(ON) 0.2Ohm; ID 9.7A; TO-220AB; PD 48W; VGS +/-20V &lt;a href="https://pricing.snapeda.com/parts/IRF520NPBF/Cypress%20Semiconductor/view-part?ref=eda"&gt;Check availability&lt;/a&gt;</description>
<gates>
<gate name="G$1" symbol="IRF520NPBF" x="0" y="0"/>
</gates>
<devices>
<device name="" package="TO-220-3">
<connects>
<connect gate="G$1" pin="D" pad="2"/>
<connect gate="G$1" pin="G" pad="1"/>
<connect gate="G$1" pin="S" pad="3"/>
</connects>
<technologies>
<technology name="">
<attribute name="MF" value="Cypress Semiconductor"/>
<attribute name="Description" value="
Trans MOSFET N-CH Si 100V 9.7A 3-Pin(3+Tab) TO-220AB Tube
"/>
<attribute name="Package" value="None"/>
<attribute name="Price" value="None"/>
<attribute name="MP" value="IRF520NPBF"/>
<attribute name="Availability" value="Not in stock"/>
</technology>
</technologies>
</device>
</devices>
</deviceset>
</devicesets>
</library>
</drawing>
</eagle>
