(footprint "SIP-3_ALM" (version 20211014) (generator pcbnew)
  (layer "F.Cu")
  (tags "A1104LUA-T ")
  (attr through_hole)
  (fp_text reference "REF**" (at 0.001808 0.004252 unlocked) (layer F.SilkS)
    (effects (font (size 1 1) (thickness 0.15)))
  )
  (fp_text value SIP-3_ALM (at 0.001808 0.004252 unlocked) (layer F.Fab)
    (effects (font (size 1 1) (thickness 0.15)))
  )
  (fp_text user "${REFERENCE}" (at 0.001808 0.004252 unlocked) (layer F.Fab)
    (effects (font (size 1 1) (thickness 0.15)))
  )
  (fp_line (start -2.337192 -1.034748) (end -2.337192 1.043252) (layer "F.CrtYd") (width 0.1524))
  (fp_line (start -2.337192 1.043252) (end 2.340808 1.043252) (layer "F.CrtYd") (width 0.1524))
  (fp_line (start 2.340808 1.043252) (end 2.340808 -1.034748) (layer "F.CrtYd") (width 0.1524))
  (fp_line (start 2.340808 -1.034748) (end -2.337192 -1.034748) (layer "F.CrtYd") (width 0.1524))
  (fp_circle (center -3.105495 -0.288748) (end -2.978495 -0.288748) (layer "F.SilkS") (width 0.1524) (fill none))
  (fp_circle (center -3.105495 -0.288748) (end -2.978495 -0.288748) (layer "F.Fab") (width 0.0254) (fill none))
  (fp_line (start -2.083192 0.789252) (end -0.835626 0.789252) (layer "F.SilkS") (width 0.1524))
  (fp_line (start 2.086808 0.789252) (end 2.086808 -0.743928) (layer "F.SilkS") (width 0.1524))
  (fp_line (start 0.434374 -0.780748) (end -0.430758 -0.780748) (layer "F.SilkS") (width 0.1524))
  (fp_line (start -2.083192 -0.743928) (end -2.083192 0.789252) (layer "F.SilkS") (width 0.1524))
  (fp_line (start -2.083192 0.789252) (end 2.086808 0.789252) (layer "F.Fab") (width 0.0254))
  (fp_line (start 2.086808 0.789252) (end 2.086808 -0.780748) (layer "F.Fab") (width 0.0254))
  (fp_line (start 2.086808 -0.780748) (end -2.083192 -0.780748) (layer "F.Fab") (width 0.0254))
  (fp_line (start -2.083192 -0.780748) (end -2.083192 0.789252) (layer "F.Fab") (width 0.0254))
  (fp_line (start 0.839242 0.789252) (end 2.086808 0.789252) (layer "F.SilkS") (width 0.1524))
  (pad "1" thru_hole circle (at -1.268192 -0.249748) (size 1.27 1.27) (drill 0.762) (layers *.Cu *.Mask))
  (pad "2" thru_hole circle (at 0.001808 1.528252) (size 1.27 1.27) (drill 0.762) (layers *.Cu *.Mask))
  (pad "3" thru_hole circle (at 1.271808 -0.249748) (size 1.27 1.27) (drill 0.762) (layers *.Cu *.Mask))
)
