
(footprint STEWART_SS-52400-005 (layer F.Cu) (tedit 6509FF82)
  (descr "")
  (fp_text reference REF** (at -2.175 -6.735 0) (layer F.SilkS)
    (effects (font (size 1.0 1.0) (thickness 0.15)))
  )
  (fp_text value STEWART_SS-52400-005 (at 7.35 -5.265 0) (layer F.Fab)
    (effects (font (size 1.0 1.0) (thickness 0.15)))
  )
  (pad None np_thru_hole circle (at -3.95 -2.8) (size 0.65 0.65) (drill 0.65) (layers *.Cu *.Mask))
  (pad None np_thru_hole circle (at 3.95 -2.8) (size 0.65 0.65) (drill 0.65) (layers *.Cu *.Mask))
  (pad S1 thru_hole oval (at -4.62 0.0) (size 1.6 0.9) (drill oval 0.6 1.3) (layers *.Cu *.Mask) (solder_mask_margin 0.102))
  (pad S2 thru_hole oval (at 4.62 0.0) (size 1.6 0.9) (drill oval 0.6 1.3) (layers *.Cu *.Mask) (solder_mask_margin 0.102))
  (pad S3 thru_hole oval (at -4.62 3.9) (size 1.6 0.9) (drill oval 0.6 1.3) (layers *.Cu *.Mask) (solder_mask_margin 0.102))
  (pad S4 thru_hole oval (at 4.62 3.9) (size 1.6 0.9) (drill oval 0.6 1.3) (layers *.Cu *.Mask) (solder_mask_margin 0.102))
  (pad A1 smd rect (at -2.75 -3.15) (size 0.32 0.7) (layers F.Cu F.Mask F.Paste) (solder_mask_margin 0.102))
  (pad A2 smd rect (at -2.25 -3.15) (size 0.32 0.7) (layers F.Cu F.Mask F.Paste) (solder_mask_margin 0.102))
  (pad A3 smd rect (at -1.75 -3.15) (size 0.32 0.7) (layers F.Cu F.Mask F.Paste) (solder_mask_margin 0.102))
  (pad A4 smd rect (at -1.25 -3.15) (size 0.32 0.7) (layers F.Cu F.Mask F.Paste) (solder_mask_margin 0.102))
  (pad A5 smd rect (at -0.75 -3.15) (size 0.32 0.7) (layers F.Cu F.Mask F.Paste) (solder_mask_margin 0.102))
  (pad A6 smd rect (at -0.25 -3.15) (size 0.32 0.7) (layers F.Cu F.Mask F.Paste) (solder_mask_margin 0.102))
  (pad A7 smd rect (at 0.25 -3.15) (size 0.32 0.7) (layers F.Cu F.Mask F.Paste) (solder_mask_margin 0.102))
  (pad A8 smd rect (at 0.75 -3.15) (size 0.32 0.7) (layers F.Cu F.Mask F.Paste) (solder_mask_margin 0.102))
  (pad A9 smd rect (at 1.25 -3.15) (size 0.32 0.7) (layers F.Cu F.Mask F.Paste) (solder_mask_margin 0.102))
  (pad A10 smd rect (at 1.75 -3.15) (size 0.32 0.7) (layers F.Cu F.Mask F.Paste) (solder_mask_margin 0.102))
  (pad A11 smd rect (at 2.25 -3.15) (size 0.32 0.7) (layers F.Cu F.Mask F.Paste) (solder_mask_margin 0.102))
  (pad A12 smd rect (at 2.75 -3.15) (size 0.32 0.7) (layers F.Cu F.Mask F.Paste) (solder_mask_margin 0.102))
  (pad B1 thru_hole circle (at 3.6 -1.45) (size 0.6 0.6) (drill 0.4) (layers *.Cu *.Mask) (solder_mask_margin 0.102))
  (pad B2 thru_hole circle (at 3.2 -0.71) (size 0.6 0.6) (drill 0.4) (layers *.Cu *.Mask) (solder_mask_margin 0.102))
  (pad B3 thru_hole circle (at 2.4 -0.71) (size 0.6 0.6) (drill 0.4) (layers *.Cu *.Mask) (solder_mask_margin 0.102))
  (pad B4 thru_hole circle (at 1.6 -0.71) (size 0.6 0.6) (drill 0.4) (layers *.Cu *.Mask) (solder_mask_margin 0.102))
  (pad B5 thru_hole circle (at 0.8 -0.71) (size 0.6 0.6) (drill 0.4) (layers *.Cu *.Mask) (solder_mask_margin 0.102))
  (pad B6 thru_hole circle (at 0.4 -1.45) (size 0.6 0.6) (drill 0.4) (layers *.Cu *.Mask) (solder_mask_margin 0.102))
  (pad G1 thru_hole circle (at 0.9 -2.275) (size 0.6 0.6) (drill 0.4) (layers *.Cu *.Mask) (solder_mask_margin 0.102))
  (pad G2 thru_hole circle (at -0.9 -2.275) (size 0.6 0.6) (drill 0.4) (layers *.Cu *.Mask) (solder_mask_margin 0.102))
  (pad B7 thru_hole circle (at -0.4 -1.45) (size 0.6 0.6) (drill 0.4) (layers *.Cu *.Mask) (solder_mask_margin 0.102))
  (pad B8 thru_hole circle (at -0.8 -0.71) (size 0.6 0.6) (drill 0.4) (layers *.Cu *.Mask) (solder_mask_margin 0.102))
  (pad B9 thru_hole circle (at -1.6 -0.71) (size 0.6 0.6) (drill 0.4) (layers *.Cu *.Mask) (solder_mask_margin 0.102))
  (pad B10 thru_hole circle (at -2.4 -0.71) (size 0.6 0.6) (drill 0.4) (layers *.Cu *.Mask) (solder_mask_margin 0.102))
  (pad B11 thru_hole circle (at -3.2 -0.71) (size 0.6 0.6) (drill 0.4) (layers *.Cu *.Mask) (solder_mask_margin 0.102))
  (pad B12 thru_hole circle (at -3.6 -1.45) (size 0.6 0.6) (drill 0.4) (layers *.Cu *.Mask) (solder_mask_margin 0.102))
  (fp_arc (start 3.8 -2.8) (end 3.8 -3.125) (angle -90.0) (layer Edge.Cuts) (width 0.01))
  (fp_line (start 3.8 -3.125) (end 4.1 -3.125) (layer Edge.Cuts) (width 0.01))
  (fp_arc (start 4.1 -2.8) (end 4.425 -2.8) (angle -90.0) (layer Edge.Cuts) (width 0.01))
  (fp_arc (start 4.1 -2.8) (end 4.1 -2.475) (angle -90.0) (layer Edge.Cuts) (width 0.01))
  (fp_line (start 4.1 -2.475) (end 3.8 -2.475) (layer Edge.Cuts) (width 0.01))
  (fp_arc (start 3.8 -2.8) (end 3.475 -2.8) (angle -90.0) (layer Edge.Cuts) (width 0.01))
  (fp_line (start -5.1 6.0) (end -5.1 -4.2) (layer F.Fab) (width 0.127))
  (fp_line (start -5.1 -4.2) (end 5.1 -4.2) (layer F.Fab) (width 0.127))
  (fp_line (start 5.1 -4.2) (end 5.1 6.0) (layer F.Fab) (width 0.127))
  (fp_line (start 5.1 6.0) (end -5.1 6.0) (layer F.Fab) (width 0.127))
  (fp_line (start -5.1 1.12) (end -5.1 2.78) (layer F.SilkS) (width 0.127))
  (fp_line (start -5.1 -1.12) (end -5.1 -4.2) (layer F.SilkS) (width 0.127))
  (fp_line (start -5.1 6.0) (end -5.1 5.02) (layer F.SilkS) (width 0.127))
  (fp_line (start 5.1 1.12) (end 5.1 2.78) (layer F.SilkS) (width 0.127))
  (fp_line (start 5.1 -4.2) (end 5.1 -1.12) (layer F.SilkS) (width 0.127))
  (fp_line (start 5.1 6.0) (end 5.1 5.02) (layer F.SilkS) (width 0.127))
  (fp_line (start -5.1 -4.2) (end 5.1 -4.2) (layer F.SilkS) (width 0.127))
  (fp_line (start 5.1 6.0) (end -5.1 6.0) (layer F.SilkS) (width 0.127))
  (fp_line (start -5.35 -4.45) (end -5.35 6.25) (layer F.CrtYd) (width 0.05))
  (fp_line (start -5.35 6.25) (end 5.35 6.25) (layer F.CrtYd) (width 0.05))
  (fp_line (start 5.35 6.25) (end 5.35 -4.45) (layer F.CrtYd) (width 0.05))
  (fp_line (start 5.35 -4.45) (end -5.35 -4.45) (layer F.CrtYd) (width 0.05))
  (fp_circle (center -5.85 -3.15) (end -5.75 -3.15) (layer F.SilkS) (width 0.2))
  (fp_circle (center -5.85 -3.15) (end -5.75 -3.15) (layer F.Fab) (width 0.2))
)