(footprint "SC0915_RPI" (version 20221018) (generator pcbnew)
  (layer "F.Cu")
  (fp_text reference "REF**" (at -3.2766 0.635) (layer "F.Fab")
      (effects (font (size 1.1938 1.1938) (thickness 0.0762)) (justify left bottom))
    (tstamp a240ff79-a2e6-4001-b424-eb1e46a7c0aa)
  )
  (fp_text value "SC0915_RPI" (at -1.7272 0.635) (layer "F.SilkS")
      (effects (font (size 1.1938 1.1938) (thickness 0.0762)) (justify left bottom))
    (tstamp 46ab1449-014a-49f1-a6c6-066ba683e597)
  )
  (fp_line (start -10.6172 -25.6286) (end -4.1148 -25.6286)
    (stroke (width 0.1524) (type solid)) (layer "F.SilkS") (tstamp 008b95f3-8807-4485-b627-8599e486661c))
  (fp_line (start -10.6172 -25.273) (end -10.6172 -25.6286)
    (stroke (width 0.1524) (type solid)) (layer "F.SilkS") (tstamp 09a644fe-03f0-48b6-a5d0-95515ba7e583))
  (fp_line (start -10.6172 -22.733) (end -10.6172 -22.987)
    (stroke (width 0.1524) (type solid)) (layer "F.SilkS") (tstamp efde7b99-a06a-40c0-a303-27b6f7cd7728))
  (fp_line (start -10.6172 -20.193) (end -10.6172 -20.447)
    (stroke (width 0.1524) (type solid)) (layer "F.SilkS") (tstamp 1cd6dc17-6ea8-44fc-a933-97c2915488d4))
  (fp_line (start -10.6172 -17.653) (end -10.6172 -17.907)
    (stroke (width 0.1524) (type solid)) (layer "F.SilkS") (tstamp 53e0dd39-26ae-4bb6-9e5a-65f82ab940f5))
  (fp_line (start -10.6172 -15.113) (end -10.6172 -15.367)
    (stroke (width 0.1524) (type solid)) (layer "F.SilkS") (tstamp 7b32c7aa-beb1-4d59-a151-7c4c7268feb8))
  (fp_line (start -10.6172 -12.573) (end -10.6172 -12.827)
    (stroke (width 0.1524) (type solid)) (layer "F.SilkS") (tstamp 70eab986-43b5-4837-8504-f25e509cde54))
  (fp_line (start -10.6172 -10.033) (end -10.6172 -10.287)
    (stroke (width 0.1524) (type solid)) (layer "F.SilkS") (tstamp 9aeea5d1-ab76-4f63-a93b-ebfca8bf7201))
  (fp_line (start -10.6172 -7.493) (end -10.6172 -7.747)
    (stroke (width 0.1524) (type solid)) (layer "F.SilkS") (tstamp 4a19c8fd-c6d5-4bdf-a688-3e8de0683fa7))
  (fp_line (start -10.6172 -4.953) (end -10.6172 -5.207)
    (stroke (width 0.1524) (type solid)) (layer "F.SilkS") (tstamp bae45270-fb5e-4287-a8fe-76d39e39ef45))
  (fp_line (start -10.6172 -2.413) (end -10.6172 -2.667)
    (stroke (width 0.1524) (type solid)) (layer "F.SilkS") (tstamp fb730967-e23e-4dd0-9d7a-6b1c88841dbb))
  (fp_line (start -10.6172 0.127) (end -10.6172 -0.127)
    (stroke (width 0.1524) (type solid)) (layer "F.SilkS") (tstamp 4ce43d91-5143-416e-ae82-b491fa1c9d38))
  (fp_line (start -10.6172 2.667) (end -10.6172 2.413)
    (stroke (width 0.1524) (type solid)) (layer "F.SilkS") (tstamp 66a205d6-4663-436c-86da-10fd348f624a))
  (fp_line (start -10.6172 5.207) (end -10.6172 4.953)
    (stroke (width 0.1524) (type solid)) (layer "F.SilkS") (tstamp 770032a1-1019-4ec7-9a1a-07508971cb3a))
  (fp_line (start -10.6172 7.747) (end -10.6172 7.493)
    (stroke (width 0.1524) (type solid)) (layer "F.SilkS") (tstamp ddec4e09-527f-4578-9cb4-2c5974c36e3c))
  (fp_line (start -10.6172 10.287) (end -10.6172 10.033)
    (stroke (width 0.1524) (type solid)) (layer "F.SilkS") (tstamp e5e3e7d2-2e78-49d0-a1fd-cd1c2273fd12))
  (fp_line (start -10.6172 12.827) (end -10.6172 12.573)
    (stroke (width 0.1524) (type solid)) (layer "F.SilkS") (tstamp 82ab9ea0-97ad-49fc-9ed4-a2c530a1edd7))
  (fp_line (start -10.6172 15.367) (end -10.6172 15.113)
    (stroke (width 0.1524) (type solid)) (layer "F.SilkS") (tstamp 95961171-612c-4f59-8dee-6b21d392b2f5))
  (fp_line (start -10.6172 17.907) (end -10.6172 17.653)
    (stroke (width 0.1524) (type solid)) (layer "F.SilkS") (tstamp 369ed600-7adb-41e5-98c0-b0b35a70e0bc))
  (fp_line (start -10.6172 20.447) (end -10.6172 20.193)
    (stroke (width 0.1524) (type solid)) (layer "F.SilkS") (tstamp 40eaa5fc-0fe5-44f5-8866-cda0a9c5a6ba))
  (fp_line (start -10.6172 22.987) (end -10.6172 22.733)
    (stroke (width 0.1524) (type solid)) (layer "F.SilkS") (tstamp 65261737-c223-4dff-8e13-50f05d869414))
  (fp_line (start -10.6172 25.6286) (end -10.6172 25.273)
    (stroke (width 0.1524) (type solid)) (layer "F.SilkS") (tstamp 04c74655-f6bf-4820-b5d0-8cb3faa98657))
  (fp_line (start -4.1148 -26.924) (end 4.1148 -26.924)
    (stroke (width 0.1524) (type solid)) (layer "F.SilkS") (tstamp ad9d8a08-53fa-46cb-93b9-11890ce0374d))
  (fp_line (start -4.1148 -25.6286) (end -4.1148 -26.924)
    (stroke (width 0.1524) (type solid)) (layer "F.SilkS") (tstamp 290d8590-5a31-4ec9-960a-241b36fcf8a3))
  (fp_line (start -3.683 25.6286) (end -10.6172 25.6286)
    (stroke (width 0.1524) (type solid)) (layer "F.SilkS") (tstamp f8a3ed8f-039f-41cb-b28e-3f50f964ba65))
  (fp_line (start -1.143 25.6286) (end -1.397 25.6286)
    (stroke (width 0.1524) (type solid)) (layer "F.SilkS") (tstamp a77cf6bd-5174-403a-a597-3b88358ac6a8))
  (fp_line (start 1.397 25.6286) (end 1.143 25.6286)
    (stroke (width 0.1524) (type solid)) (layer "F.SilkS") (tstamp 1fc1b5f4-12f1-489f-8a78-d7acac7f0ed3))
  (fp_line (start 4.1148 -26.924) (end 4.1148 -25.6286)
    (stroke (width 0.1524) (type solid)) (layer "F.SilkS") (tstamp 12812a35-7798-4392-80e1-5a08c0061574))
  (fp_line (start 4.1148 -25.6286) (end 10.6172 -25.6286)
    (stroke (width 0.1524) (type solid)) (layer "F.SilkS") (tstamp bb174d36-a239-489a-b88e-51a1869b54e1))
  (fp_line (start 10.6172 -25.6286) (end 10.6172 -25.273)
    (stroke (width 0.1524) (type solid)) (layer "F.SilkS") (tstamp 035c8c6c-28b2-42d7-be98-606577bea1eb))
  (fp_line (start 10.6172 -22.987) (end 10.6172 -22.733)
    (stroke (width 0.1524) (type solid)) (layer "F.SilkS") (tstamp db718903-ee34-4400-9663-4ff80aea85ff))
  (fp_line (start 10.6172 -20.447) (end 10.6172 -20.193)
    (stroke (width 0.1524) (type solid)) (layer "F.SilkS") (tstamp bb03574f-1ff1-43a9-adaf-cf55b70c2936))
  (fp_line (start 10.6172 -17.907) (end 10.6172 -17.653)
    (stroke (width 0.1524) (type solid)) (layer "F.SilkS") (tstamp 6475a950-bb59-4a9b-a70e-f15985359298))
  (fp_line (start 10.6172 -15.367) (end 10.6172 -15.113)
    (stroke (width 0.1524) (type solid)) (layer "F.SilkS") (tstamp 1fbb4244-07ad-4596-ad51-05ecb5ed90c3))
  (fp_line (start 10.6172 -12.827) (end 10.6172 -12.573)
    (stroke (width 0.1524) (type solid)) (layer "F.SilkS") (tstamp 4a17fe9f-9874-4fe7-9bca-2988dffb8902))
  (fp_line (start 10.6172 -10.287) (end 10.6172 -10.033)
    (stroke (width 0.1524) (type solid)) (layer "F.SilkS") (tstamp 789f5954-1b94-449c-9046-14d1b6e07765))
  (fp_line (start 10.6172 -7.747) (end 10.6172 -7.493)
    (stroke (width 0.1524) (type solid)) (layer "F.SilkS") (tstamp 90bc4a58-ba94-468f-ba75-53114bc98b3f))
  (fp_line (start 10.6172 -5.207) (end 10.6172 -4.953)
    (stroke (width 0.1524) (type solid)) (layer "F.SilkS") (tstamp 5556a8eb-153f-41c8-a0f7-443ac3708e45))
  (fp_line (start 10.6172 -2.667) (end 10.6172 -2.413)
    (stroke (width 0.1524) (type solid)) (layer "F.SilkS") (tstamp 1f7e5077-d99c-4486-95c2-76dd12d3faf9))
  (fp_line (start 10.6172 -0.127) (end 10.6172 0.127)
    (stroke (width 0.1524) (type solid)) (layer "F.SilkS") (tstamp ac21ac66-abf8-4636-ac2d-e33adfa126f5))
  (fp_line (start 10.6172 2.413) (end 10.6172 2.667)
    (stroke (width 0.1524) (type solid)) (layer "F.SilkS") (tstamp 9f1f286e-a765-4db6-b7e9-9b4c470c394a))
  (fp_line (start 10.6172 4.953) (end 10.6172 5.207)
    (stroke (width 0.1524) (type solid)) (layer "F.SilkS") (tstamp 737623f5-5dca-49ef-8efc-95f39867c27d))
  (fp_line (start 10.6172 7.493) (end 10.6172 7.747)
    (stroke (width 0.1524) (type solid)) (layer "F.SilkS") (tstamp a4318fc5-0e3d-4392-8e2e-cdb3e312729b))
  (fp_line (start 10.6172 10.033) (end 10.6172 10.287)
    (stroke (width 0.1524) (type solid)) (layer "F.SilkS") (tstamp d528a897-cc6a-4fa8-8952-e1c307177ae7))
  (fp_line (start 10.6172 12.573) (end 10.6172 12.827)
    (stroke (width 0.1524) (type solid)) (layer "F.SilkS") (tstamp c2afe4f4-cbd4-43ad-8c50-822d01836e3a))
  (fp_line (start 10.6172 15.113) (end 10.6172 15.367)
    (stroke (width 0.1524) (type solid)) (layer "F.SilkS") (tstamp 790e859e-9492-42f7-9c79-ee74692b4289))
  (fp_line (start 10.6172 17.653) (end 10.6172 17.907)
    (stroke (width 0.1524) (type solid)) (layer "F.SilkS") (tstamp 62e37b05-7c40-461b-8339-2eda4674da71))
  (fp_line (start 10.6172 20.193) (end 10.6172 20.447)
    (stroke (width 0.1524) (type solid)) (layer "F.SilkS") (tstamp 128424f3-423e-42c8-b347-92f11382b028))
  (fp_line (start 10.6172 22.733) (end 10.6172 22.987)
    (stroke (width 0.1524) (type solid)) (layer "F.SilkS") (tstamp d855ce24-70cc-4af6-a7b8-7f74387a5a2b))
  (fp_line (start 10.6172 25.273) (end 10.6172 25.6286)
    (stroke (width 0.1524) (type solid)) (layer "F.SilkS") (tstamp 7cb6c4af-9c07-4c6a-a211-af040b276511))
  (fp_line (start 10.6172 25.6286) (end 3.683 25.6286)
    (stroke (width 0.1524) (type solid)) (layer "F.SilkS") (tstamp 6b525d20-0794-4abe-96c4-9c41c36dc9d9))
  (fp_arc (start -14.3764 -24.13) (mid -14.2494 -24.257) (end -14.1224 -24.13)
    (stroke (width 0.1524) (type solid)) (layer "F.SilkS") (tstamp ba7e70f7-3de1-41f4-9cfa-4983da1ba440))
  (fp_arc (start -14.1224 -24.13) (mid -14.2494 -24.003) (end -14.3764 -24.13)
    (stroke (width 0.1524) (type solid)) (layer "F.SilkS") (tstamp ac6f76b9-8ee3-434e-b759-d2a256c6ad6c))
  (fp_line (start -10.5156 -25.5016) (end -10.5156 25.5016)
    (stroke (width 0.1524) (type solid)) (layer "F.Fab") (tstamp 01246167-9b6f-4a68-998a-d402631ffc89))
  (fp_line (start -10.5156 25.5016) (end 10.5156 25.5016)
    (stroke (width 0.1524) (type solid)) (layer "F.Fab") (tstamp 00516e1d-c0fa-4ab2-b368-cd5458c4b720))
  (fp_line (start -4.0132 -26.797) (end -4.0132 -25.5016)
    (stroke (width 0.1524) (type solid)) (layer "F.Fab") (tstamp 24f80632-6d57-4a46-9afb-92925ea45990))
  (fp_line (start -4.0132 -26.797) (end 4.0132 -26.797)
    (stroke (width 0.1524) (type solid)) (layer "F.Fab") (tstamp e402f4ef-204b-4b37-aeea-f43d221864f7))
  (fp_line (start -0.3048 -25.5016) (end -10.5156 -25.5016)
    (stroke (width 0.1524) (type solid)) (layer "F.Fab") (tstamp d7e4d170-b12c-4239-aa0b-75f6a7889a79))
  (fp_line (start 0.3048 -25.5016) (end -0.3048 -25.5016)
    (stroke (width 0.1524) (type solid)) (layer "F.Fab") (tstamp a061d414-fa0e-41cf-aaf8-9d7d384e02b7))
  (fp_line (start 4.0132 -26.797) (end 4.0132 -25.5016)
    (stroke (width 0.1524) (type solid)) (layer "F.Fab") (tstamp a501a353-b526-478b-99da-359c4eddd1ff))
  (fp_line (start 10.5156 -25.5016) (end 0.3048 -25.5016)
    (stroke (width 0.1524) (type solid)) (layer "F.Fab") (tstamp 6bd11546-2af3-4d2e-9993-31f385799128))
  (fp_line (start 10.5156 25.5016) (end 10.5156 -25.5016)
    (stroke (width 0.1524) (type solid)) (layer "F.Fab") (tstamp 9278662d-8b40-4c08-8842-0d547adc4677))
  (fp_arc (start -8.1788 -24.13) (mid -8.1026 -24.2062) (end -8.0264 -24.13)
    (stroke (width 0.1) (type solid)) (layer "F.Fab") (tstamp 40b83292-0ebc-4ea7-a9f2-77b85fa87549))
  (fp_arc (start -8.0264 -24.13) (mid -8.1026 -24.0538) (end -8.1788 -24.13)
    (stroke (width 0.1) (type solid)) (layer "F.Fab") (tstamp cd8e6e3c-b62a-4f83-8dc3-bc9263708270))
  (fp_arc (start 0.3048 -25.5016) (mid 0 -25.1968) (end -0.3048 -25.5016)
    (stroke (width 0.1524) (type solid)) (layer "F.Fab") (tstamp c4dfdc55-1104-4048-b4ef-1ad6e0aa758f))
  (pad "1" smd rect (at -9.6901 -24.13) (size 3.2004 1.6002) (layers "F.Cu" "F.Paste" "F.Mask")
    (solder_mask_margin 0.0635) (thermal_bridge_angle 45) (tstamp 711fd258-d107-420d-bd6a-04aa948c23e2))
  (pad "2" smd rect (at -9.6901 -21.59) (size 3.2004 1.6002) (layers "F.Cu" "F.Paste" "F.Mask")
    (solder_mask_margin 0.0635) (thermal_bridge_angle 45) (tstamp 216bfab1-6a9c-4022-8db1-a72ddb0933be))
  (pad "3" smd rect (at -9.6901 -19.05) (size 3.2004 1.6002) (layers "F.Cu" "F.Paste" "F.Mask")
    (solder_mask_margin 0.0635) (thermal_bridge_angle 45) (tstamp 3af16cea-7479-47c5-9e49-193bd24dd5f4))
  (pad "4" smd rect (at -9.6901 -16.51) (size 3.2004 1.6002) (layers "F.Cu" "F.Paste" "F.Mask")
    (solder_mask_margin 0.0635) (thermal_bridge_angle 45) (tstamp 46b36bec-2662-4efc-8a74-6e679f587e51))
  (pad "5" smd rect (at -9.6901 -13.97) (size 3.2004 1.6002) (layers "F.Cu" "F.Paste" "F.Mask")
    (solder_mask_margin 0.0635) (thermal_bridge_angle 45) (tstamp 8977402b-d992-4d5e-b930-bb84bd7d87a4))
  (pad "6" smd rect (at -9.6901 -11.43) (size 3.2004 1.6002) (layers "F.Cu" "F.Paste" "F.Mask")
    (solder_mask_margin 0.0635) (thermal_bridge_angle 45) (tstamp 79e3952c-3c11-4293-848e-5964cacdffbf))
  (pad "7" smd rect (at -9.6901 -8.89) (size 3.2004 1.6002) (layers "F.Cu" "F.Paste" "F.Mask")
    (solder_mask_margin 0.0635) (thermal_bridge_angle 45) (tstamp ef78a268-87b2-47f0-99ca-c4fe2cb4a906))
  (pad "8" smd rect (at -9.6901 -6.35) (size 3.2004 1.6002) (layers "F.Cu" "F.Paste" "F.Mask")
    (solder_mask_margin 0.0635) (thermal_bridge_angle 45) (tstamp 3dae97b9-9092-41e0-9ad8-7d98bca5554d))
  (pad "9" smd rect (at -9.6901 -3.81) (size 3.2004 1.6002) (layers "F.Cu" "F.Paste" "F.Mask")
    (solder_mask_margin 0.0635) (thermal_bridge_angle 45) (tstamp b863b20a-1bec-439e-83bb-7bce834f2fc9))
  (pad "10" smd rect (at -9.6901 -1.27) (size 3.2004 1.6002) (layers "F.Cu" "F.Paste" "F.Mask")
    (solder_mask_margin 0.0635) (thermal_bridge_angle 45) (tstamp ba0e568d-0f7e-405a-9a6e-c1b1d9267a79))
  (pad "11" smd rect (at -9.6901 1.27) (size 3.2004 1.6002) (layers "F.Cu" "F.Paste" "F.Mask")
    (solder_mask_margin 0.0635) (thermal_bridge_angle 45) (tstamp 5892731e-a6f5-4258-b6bc-de7aabe0eec0))
  (pad "12" smd rect (at -9.6901 3.81) (size 3.2004 1.6002) (layers "F.Cu" "F.Paste" "F.Mask")
    (solder_mask_margin 0.0635) (thermal_bridge_angle 45) (tstamp 2d6d8af6-15e7-47e1-89a9-b7291f4562d7))
  (pad "13" smd rect (at -9.6901 6.35) (size 3.2004 1.6002) (layers "F.Cu" "F.Paste" "F.Mask")
    (solder_mask_margin 0.0635) (thermal_bridge_angle 45) (tstamp b87253fc-cb27-4375-bc38-1b2b2cfda5bc))
  (pad "14" smd rect (at -9.6901 8.89) (size 3.2004 1.6002) (layers "F.Cu" "F.Paste" "F.Mask")
    (solder_mask_margin 0.0635) (thermal_bridge_angle 45) (tstamp 3a51a130-cd74-4dda-bfd4-e7858cb4f79b))
  (pad "15" smd rect (at -9.6901 11.43) (size 3.2004 1.6002) (layers "F.Cu" "F.Paste" "F.Mask")
    (solder_mask_margin 0.0635) (thermal_bridge_angle 45) (tstamp f2552979-727f-4019-b907-bf181aa86425))
  (pad "16" smd rect (at -9.6901 13.97) (size 3.2004 1.6002) (layers "F.Cu" "F.Paste" "F.Mask")
    (solder_mask_margin 0.0635) (thermal_bridge_angle 45) (tstamp ed4bf7cb-063b-4372-9915-a692e23fbd76))
  (pad "17" smd rect (at -9.6901 16.51) (size 3.2004 1.6002) (layers "F.Cu" "F.Paste" "F.Mask")
    (solder_mask_margin 0.0635) (thermal_bridge_angle 45) (tstamp 01ae991c-66ee-4184-926e-e7a35abf4794))
  (pad "18" smd rect (at -9.6901 19.05) (size 3.2004 1.6002) (layers "F.Cu" "F.Paste" "F.Mask")
    (solder_mask_margin 0.0635) (thermal_bridge_angle 45) (tstamp 79fd583c-a931-4f98-9bcb-551e1ff453ec))
  (pad "19" smd rect (at -9.6901 21.59) (size 3.2004 1.6002) (layers "F.Cu" "F.Paste" "F.Mask")
    (solder_mask_margin 0.0635) (thermal_bridge_angle 45) (tstamp e29e45b1-f34c-42fd-b08d-3a398ec397dd))
  (pad "20" smd rect (at -9.6901 24.13) (size 3.2004 1.6002) (layers "F.Cu" "F.Paste" "F.Mask")
    (solder_mask_margin 0.0635) (thermal_bridge_angle 45) (tstamp 9d277848-bed7-4966-a1a4-29d56f17d441))
  (pad "21" smd rect (at 9.6901 24.13 180) (size 3.2004 1.6002) (layers "F.Cu" "F.Paste" "F.Mask")
    (solder_mask_margin 0.0635) (thermal_bridge_angle 45) (tstamp 50fd915f-0bcc-487d-829f-0265e4ba2c6e))
  (pad "22" smd rect (at 9.6901 21.59 180) (size 3.2004 1.6002) (layers "F.Cu" "F.Paste" "F.Mask")
    (solder_mask_margin 0.0635) (thermal_bridge_angle 45) (tstamp d3d5bb9f-16f0-4150-9968-405a6c11663a))
  (pad "23" smd rect (at 9.6901 19.05 180) (size 3.2004 1.6002) (layers "F.Cu" "F.Paste" "F.Mask")
    (solder_mask_margin 0.0635) (thermal_bridge_angle 45) (tstamp 8dc035f3-d405-464a-8f77-6f12c4ab2a90))
  (pad "24" smd rect (at 9.6901 16.51 180) (size 3.2004 1.6002) (layers "F.Cu" "F.Paste" "F.Mask")
    (solder_mask_margin 0.0635) (thermal_bridge_angle 45) (tstamp 04442f0a-f518-4309-8cdf-37fa5d5eca86))
  (pad "25" smd rect (at 9.6901 13.97 180) (size 3.2004 1.6002) (layers "F.Cu" "F.Paste" "F.Mask")
    (solder_mask_margin 0.0635) (thermal_bridge_angle 45) (tstamp 48ccb99c-eaae-4de2-9f1b-cae8c123053c))
  (pad "26" smd rect (at 9.6901 11.43 180) (size 3.2004 1.6002) (layers "F.Cu" "F.Paste" "F.Mask")
    (solder_mask_margin 0.0635) (thermal_bridge_angle 45) (tstamp aa974ea4-f54d-4ba9-81ba-0a4aa7932b0d))
  (pad "27" smd rect (at 9.6901 8.89 180) (size 3.2004 1.6002) (layers "F.Cu" "F.Paste" "F.Mask")
    (solder_mask_margin 0.0635) (thermal_bridge_angle 45) (tstamp e6b755e4-dda1-4b1c-ae09-b9440394bced))
  (pad "28" smd rect (at 9.6901 6.35 180) (size 3.2004 1.6002) (layers "F.Cu" "F.Paste" "F.Mask")
    (solder_mask_margin 0.0635) (thermal_bridge_angle 45) (tstamp 5f2c24f3-671f-44ba-b373-b4ee465c0b2a))
  (pad "29" smd rect (at 9.6901 3.81 180) (size 3.2004 1.6002) (layers "F.Cu" "F.Paste" "F.Mask")
    (solder_mask_margin 0.0635) (thermal_bridge_angle 45) (tstamp 3da3c4c7-26e0-4616-9443-1bd5666538b6))
  (pad "30" smd rect (at 9.6901 1.27 180) (size 3.2004 1.6002) (layers "F.Cu" "F.Paste" "F.Mask")
    (solder_mask_margin 0.0635) (thermal_bridge_angle 45) (tstamp 60667748-c8a1-4725-87c1-7e92ad5de390))
  (pad "31" smd rect (at 9.6901 -1.27 180) (size 3.2004 1.6002) (layers "F.Cu" "F.Paste" "F.Mask")
    (solder_mask_margin 0.0635) (thermal_bridge_angle 45) (tstamp 7e6d9dd8-ad16-4374-bf62-ca3a1dee4c55))
  (pad "32" smd rect (at 9.6901 -3.81 180) (size 3.2004 1.6002) (layers "F.Cu" "F.Paste" "F.Mask")
    (solder_mask_margin 0.0635) (thermal_bridge_angle 45) (tstamp 45dee64c-baa3-4df2-b7a8-c55ca0444053))
  (pad "33" smd rect (at 9.6901 -6.35 180) (size 3.2004 1.6002) (layers "F.Cu" "F.Paste" "F.Mask")
    (solder_mask_margin 0.0635) (thermal_bridge_angle 45) (tstamp f6ce9339-3daf-4f6b-89a3-d3f046f9b4a2))
  (pad "34" smd rect (at 9.6901 -8.89 180) (size 3.2004 1.6002) (layers "F.Cu" "F.Paste" "F.Mask")
    (solder_mask_margin 0.0635) (thermal_bridge_angle 45) (tstamp 1564d440-9a7e-4525-ab20-5b287e727e91))
  (pad "35" smd rect (at 9.6901 -11.43 180) (size 3.2004 1.6002) (layers "F.Cu" "F.Paste" "F.Mask")
    (solder_mask_margin 0.0635) (thermal_bridge_angle 45) (tstamp 514ce532-21a4-4855-92d7-4bf2639783af))
  (pad "36" smd rect (at 9.6901 -13.97 180) (size 3.2004 1.6002) (layers "F.Cu" "F.Paste" "F.Mask")
    (solder_mask_margin 0.0635) (thermal_bridge_angle 45) (tstamp 3238791e-7e67-448e-b18c-2ac7dd6ade10))
  (pad "37" smd rect (at 9.6901 -16.51 180) (size 3.2004 1.6002) (layers "F.Cu" "F.Paste" "F.Mask")
    (solder_mask_margin 0.0635) (thermal_bridge_angle 45) (tstamp ca1583e1-0082-4a7d-9a80-22a2232e5f2e))
  (pad "38" smd rect (at 9.6901 -19.05 180) (size 3.2004 1.6002) (layers "F.Cu" "F.Paste" "F.Mask")
    (solder_mask_margin 0.0635) (thermal_bridge_angle 45) (tstamp 166f1922-f1eb-49bd-b66f-24a249da9321))
  (pad "39" smd rect (at 9.6901 -21.59 180) (size 3.2004 1.6002) (layers "F.Cu" "F.Paste" "F.Mask")
    (solder_mask_margin 0.0635) (thermal_bridge_angle 45) (tstamp d6c6e2c1-cb7f-44e2-9c4d-d1f8c44624e7))
  (pad "40" smd rect (at 9.6901 -24.13 180) (size 3.2004 1.6002) (layers "F.Cu" "F.Paste" "F.Mask")
    (solder_mask_margin 0.0635) (thermal_bridge_angle 45) (tstamp b256807e-48e5-42d9-933b-7d8e350f6fdd))
  (pad "A" smd rect (at -2.725418 -24.000459) (size 1.0922 1.8034) (layers "F.Cu" "F.Paste" "F.Mask")
    (solder_mask_margin 0.0635) (thermal_bridge_angle 45) (tstamp e36597e1-1b07-4088-8243-f368d08f0d40))
  (pad "B" smd rect (at 2.725418 -24.000459) (size 1.0922 1.8034) (layers "F.Cu" "F.Paste" "F.Mask")
    (solder_mask_margin 0.0635) (thermal_bridge_angle 45) (tstamp d320ead3-f7f8-4d11-93dc-ce9b3817b2ad))
  (pad "C" smd rect (at -2.4257 -20.97024) (size 1.0414 1.4478) (layers "F.Cu" "F.Paste" "F.Mask")
    (solder_mask_margin 0.0635) (thermal_bridge_angle 45) (tstamp 2dc00fbe-c4f7-4691-a136-2d4a939f5b95))
  (pad "D" smd rect (at 2.4257 -20.97024) (size 1.0414 1.4478) (layers "F.Cu" "F.Paste" "F.Mask")
    (solder_mask_margin 0.0635) (thermal_bridge_angle 45) (tstamp 5fcefc20-bcb2-47fd-a7b4-492c3ac5adf5))
  (pad "D1" smd rect (at -2.54 24.698959 90) (size 3.2004 1.6002) (layers "F.Cu" "F.Paste" "F.Mask")
    (solder_mask_margin 0.0635) (thermal_bridge_angle 45) (tstamp 0cb359b1-20ad-411f-a0db-9a10e5dd7182))
  (pad "D2" smd rect (at 0 24.698959 90) (size 3.2004 1.6002) (layers "F.Cu" "F.Paste" "F.Mask")
    (solder_mask_margin 0.0635) (thermal_bridge_angle 45) (tstamp 9a3510aa-39c5-4203-b352-1f2b149ef994))
  (pad "D3" smd rect (at 2.54 24.698959 90) (size 3.2004 1.6002) (layers "F.Cu" "F.Paste" "F.Mask")
    (solder_mask_margin 0.0635) (thermal_bridge_angle 45) (tstamp 3c851eba-1b1e-44dc-b894-7e9bc2010e10))
  (pad "TP1" smd rect (at 0 -21.000718) (size 1.4986 1.4986) (layers "F.Cu" "F.Paste" "F.Mask")
    (solder_mask_margin 0.0635) (thermal_bridge_angle 45) (tstamp cce5e1a6-081a-4ba3-932e-477aacad91d8))
  (pad "TP2" smd rect (at 1.000759 -24.300181) (size 1.4986 1.4986) (layers "F.Cu" "F.Paste" "F.Mask")
    (solder_mask_margin 0.0635) (thermal_bridge_angle 45) (tstamp 35918404-72b1-451c-aab6-bf331d19eb36))
  (pad "TP3" smd rect (at -1.000759 -24.300181) (size 1.4986 1.4986) (layers "F.Cu" "F.Paste" "F.Mask")
    (solder_mask_margin 0.0635) (thermal_bridge_angle 45) (tstamp 78e9462e-abe9-468c-bc3d-507c67300795))
  (pad "TP4" smd rect (at -2.499359 -17.5006) (size 1.4986 1.4986) (layers "F.Cu" "F.Paste" "F.Mask")
    (solder_mask_margin 0.0635) (thermal_bridge_angle 45) (tstamp c4f574c6-19cb-4b5b-83af-eda10680f969))
  (pad "TP5" smd rect (at -2.499359 -15.00124) (size 1.4986 1.4986) (layers "F.Cu" "F.Paste" "F.Mask")
    (solder_mask_margin 0.0635) (thermal_bridge_angle 45) (tstamp fe8840a0-dca5-4201-88f3-304a332f24e5))
  (pad "TP6" smd rect (at -2.499359 -12.501881) (size 1.4986 1.4986) (layers "F.Cu" "F.Paste" "F.Mask")
    (solder_mask_margin 0.0635) (thermal_bridge_angle 45) (tstamp 292cf1d3-4eef-41c9-9766-47741247e446))
)
