%TF.GenerationSoftware,KiCad,Pcbnew,7.0.11-7.0.11~ubuntu22.04.1*%
%TF.CreationDate,2024-06-05T14:22:13-04:00*%
%TF.ProjectId,MCU_Shield_RP2040_R10,4d43555f-5368-4696-956c-645f52503230,rev?*%
%TF.SameCoordinates,Original*%
%TF.FileFunction,Soldermask,Bot*%
%TF.FilePolarity,Negative*%
%FSLAX46Y46*%
G04 Gerber Fmt 4.6, Leading zero omitted, Abs format (unit mm)*
G04 Created by KiCad (PCBNEW 7.0.11-7.0.11~ubuntu22.04.1) date 2024-06-05 14:22:13*
%MOMM*%
%LPD*%
G01*
G04 APERTURE LIST*
G04 Aperture macros list*
%AMRoundRect*
0 Rectangle with rounded corners*
0 $1 Rounding radius*
0 $2 $3 $4 $5 $6 $7 $8 $9 X,Y pos of 4 corners*
0 Add a 4 corners polygon primitive as box body*
4,1,4,$2,$3,$4,$5,$6,$7,$8,$9,$2,$3,0*
0 Add four circle primitives for the rounded corners*
1,1,$1+$1,$2,$3*
1,1,$1+$1,$4,$5*
1,1,$1+$1,$6,$7*
1,1,$1+$1,$8,$9*
0 Add four rect primitives between the rounded corners*
20,1,$1+$1,$2,$3,$4,$5,0*
20,1,$1+$1,$4,$5,$6,$7,0*
20,1,$1+$1,$6,$7,$8,$9,0*
20,1,$1+$1,$8,$9,$2,$3,0*%
G04 Aperture macros list end*
%ADD10O,1.651000X3.175000*%
%ADD11C,1.501600*%
%ADD12O,1.501600X1.501600*%
%ADD13C,1.801600*%
%ADD14C,3.403600*%
%ADD15O,3.479800X1.803400*%
%ADD16C,3.276600*%
%ADD17C,1.371600*%
%ADD18C,1.515700*%
%ADD19RoundRect,0.063500X0.900000X0.900000X-0.900000X0.900000X-0.900000X-0.900000X0.900000X-0.900000X0*%
%ADD20C,1.927000*%
%ADD21C,1.304000*%
%ADD22RoundRect,0.102000X0.550000X-0.550000X0.550000X0.550000X-0.550000X0.550000X-0.550000X-0.550000X0*%
%ADD23RoundRect,0.063500X0.900000X-0.900000X0.900000X0.900000X-0.900000X0.900000X-0.900000X-0.900000X0*%
%ADD24RoundRect,0.063500X-0.900000X0.900000X-0.900000X-0.900000X0.900000X-0.900000X0.900000X0.900000X0*%
%ADD25RoundRect,0.055580X1.031420X0.341420X-1.031420X0.341420X-1.031420X-0.341420X1.031420X-0.341420X0*%
G04 APERTURE END LIST*
D10*
%TO.C,DEBUG0*%
X124467500Y-78617500D03*
X121927500Y-78617500D03*
%TD*%
D11*
%TO.C,R1*%
X171000000Y-95500000D03*
D12*
X171000000Y-90420000D03*
%TD*%
D13*
%TO.C,*%
X143900000Y-77800000D03*
%TD*%
%TO.C,*%
X147900000Y-78000000D03*
%TD*%
D14*
%TO.C,Q1*%
X139593200Y-95762500D03*
D15*
X122067200Y-95762500D03*
X122067200Y-93222500D03*
X122067200Y-98302500D03*
%TD*%
D11*
%TO.C,R2*%
X171000000Y-114540000D03*
D12*
X171000000Y-109460000D03*
%TD*%
D16*
%TO.C,@HOLE3*%
X116212500Y-116082500D03*
%TD*%
D17*
%TO.C,U4*%
X171249748Y-85231808D03*
X169471748Y-86501808D03*
X171249748Y-87771808D03*
%TD*%
D18*
%TO.C,IC2*%
X143247500Y-120082500D03*
X143247500Y-117542500D03*
X143247500Y-115002500D03*
X143247500Y-112462500D03*
X143247500Y-109922500D03*
X143247500Y-107382500D03*
X143247500Y-104842500D03*
X143247500Y-102302500D03*
X135627500Y-102302500D03*
X135627500Y-104842500D03*
X135627500Y-107382500D03*
X135627500Y-109922500D03*
X135627500Y-112462500D03*
X135627500Y-115002500D03*
X135627500Y-117542500D03*
X135627500Y-120082500D03*
%TD*%
D16*
%TO.C,@HOLE1*%
X170500000Y-80116100D03*
X170500000Y-80116100D03*
%TD*%
%TO.C,@HOLE4*%
X170500000Y-129925500D03*
%TD*%
D17*
%TO.C,U3*%
X171000000Y-104000000D03*
X169222000Y-105270000D03*
X171000000Y-106540000D03*
%TD*%
D13*
%TO.C,*%
X147900000Y-80500000D03*
%TD*%
%TO.C,*%
X147900000Y-83100000D03*
%TD*%
D16*
%TO.C,@HOLE0*%
X170500000Y-98302500D03*
X170500000Y-98302500D03*
%TD*%
D14*
%TO.C,Q2*%
X139593200Y-84332500D03*
D15*
X122067200Y-84332500D03*
X122067200Y-81792500D03*
X122067200Y-86872500D03*
%TD*%
D18*
%TO.C,IC1*%
X131747500Y-120172500D03*
X131747500Y-117632500D03*
X131747500Y-115092500D03*
X131747500Y-112552500D03*
X131747500Y-110012500D03*
X131747500Y-107472500D03*
X131747500Y-104932500D03*
X131747500Y-102392500D03*
X124127500Y-102392500D03*
X124127500Y-104932500D03*
X124127500Y-107472500D03*
X124127500Y-110012500D03*
X124127500Y-112552500D03*
X124127500Y-115092500D03*
X124127500Y-117632500D03*
X124127500Y-120172500D03*
%TD*%
D13*
%TO.C,*%
X165700000Y-80500000D03*
%TD*%
%TO.C,*%
X165700000Y-103400000D03*
%TD*%
D19*
%TO.C,P2*%
X131687500Y-124922500D03*
D20*
X129147500Y-124922500D03*
X126607500Y-124922500D03*
X124067500Y-124922500D03*
%TD*%
D21*
%TO.C,C2*%
X115877500Y-109422500D03*
D22*
X115877500Y-111922500D03*
%TD*%
D23*
%TO.C,P8*%
X115958500Y-87253500D03*
D20*
X115958500Y-84713500D03*
%TD*%
D19*
%TO.C,P4*%
X143207500Y-124922500D03*
D20*
X140667500Y-124922500D03*
X138127500Y-124922500D03*
X135587500Y-124922500D03*
%TD*%
D24*
%TO.C,P1*%
X116212500Y-120527500D03*
D20*
X116212500Y-123067500D03*
X116212500Y-125607500D03*
X116212500Y-128147500D03*
%TD*%
D23*
%TO.C,P3*%
X115958500Y-105795500D03*
D20*
X115958500Y-103255500D03*
%TD*%
D23*
%TO.C,P20*%
X115877500Y-99692500D03*
D20*
X115877500Y-97152500D03*
%TD*%
D23*
%TO.C,P11*%
X115877500Y-80672500D03*
D20*
X115877500Y-78132500D03*
%TD*%
D25*
%TO.C,U2*%
X158692500Y-99572500D03*
X158692500Y-100842500D03*
X158692500Y-102112500D03*
X158692500Y-103382500D03*
X153742500Y-103382500D03*
X153742500Y-102112500D03*
X153742500Y-100842500D03*
X153742500Y-99572500D03*
%TD*%
D21*
%TO.C,C1*%
X115877500Y-90922500D03*
D22*
X115877500Y-93422500D03*
%TD*%
M02*
