(kicad_pcb (version 20221018) (generator pcbnew)

  (general
    (thickness 1.6)
  )

  (paper "A4")
  (layers
    (0 "F.Cu" signal)
    (31 "B.Cu" signal)
    (32 "B.Adhes" user "B.Adhesive")
    (33 "F.Adhes" user "F.Adhesive")
    (34 "B.Paste" user)
    (35 "F.Paste" user)
    (36 "B.SilkS" user "B.Silkscreen")
    (37 "F.SilkS" user "F.Silkscreen")
    (38 "B.Mask" user)
    (39 "F.Mask" user)
    (40 "Dwgs.User" user "User.Drawings")
    (41 "Cmts.User" user "User.Comments")
    (42 "Eco1.User" user "User.Eco1")
    (43 "Eco2.User" user "User.Eco2")
    (44 "Edge.Cuts" user)
    (45 "Margin" user)
    (46 "B.CrtYd" user "B.Courtyard")
    (47 "F.CrtYd" user "F.Courtyard")
    (48 "B.Fab" user)
    (49 "F.Fab" user)
    (50 "User.1" user)
    (51 "User.2" user)
    (52 "User.3" user)
    (53 "User.4" user)
    (54 "User.5" user)
    (55 "User.6" user)
    (56 "User.7" user)
    (57 "User.8" user)
    (58 "User.9" user)
  )

  (setup
    (stackup
      (layer "F.SilkS" (type "Top Silk Screen"))
      (layer "F.Paste" (type "Top Solder Paste"))
      (layer "F.Mask" (type "Top Solder Mask") (thickness 0.01))
      (layer "F.Cu" (type "copper") (thickness 0.035))
      (layer "dielectric 1" (type "core") (thickness 1.51) (material "FR4") (epsilon_r 4.5) (loss_tangent 0.02))
      (layer "B.Cu" (type "copper") (thickness 0.035))
      (layer "B.Mask" (type "Bottom Solder Mask") (thickness 0.01))
      (layer "B.Paste" (type "Bottom Solder Paste"))
      (layer "B.SilkS" (type "Bottom Silk Screen"))
      (copper_finish "None")
      (dielectric_constraints no)
    )
    (pad_to_mask_clearance 0)
    (pcbplotparams
      (layerselection 0x00010fc_ffffffff)
      (plot_on_all_layers_selection 0x0000000_00000000)
      (disableapertmacros false)
      (usegerberextensions false)
      (usegerberattributes true)
      (usegerberadvancedattributes true)
      (creategerberjobfile true)
      (dashed_line_dash_ratio 12.000000)
      (dashed_line_gap_ratio 3.000000)
      (svgprecision 4)
      (plotframeref false)
      (viasonmask false)
      (mode 1)
      (useauxorigin false)
      (hpglpennumber 1)
      (hpglpenspeed 20)
      (hpglpendiameter 15.000000)
      (dxfpolygonmode true)
      (dxfimperialunits true)
      (dxfusepcbnewfont true)
      (psnegative false)
      (psa4output false)
      (plotreference true)
      (plotvalue true)
      (plotinvisibletext false)
      (sketchpadsonfab false)
      (subtractmaskfromsilk false)
      (outputformat 1)
      (mirror false)
      (drillshape 0)
      (scaleselection 1)
      (outputdirectory "")
    )
  )

  (net 0 "")
  (net 1 "VCC_B")
  (net 2 "GND")
  (net 3 "VCC_A")

  (footprint "Connector_PinHeader_2.54mm:PinHeader_1x02_P2.54mm_Vertical" (layer "F.Cu")
    (tstamp 18f7b23a-4126-494b-9109-c0a14d136784)
    (at 163.5 113.46)
    (descr "Through hole straight pin header, 1x02, 2.54mm pitch, single row")
    (tags "Through hole pin header THT 1x02 2.54mm single row")
    (property "Sheetfile" "Lasers_Daughterboard_R1.kicad_sch")
    (property "Sheetname" "")
    (property "ki_description" "Generic connector, single row, 01x02, script generated (kicad-library-utils/schlib/autogen/connector/)")
    (property "ki_keywords" "connector")
    (path "/c9c9fe98-a5c5-414d-b6ee-5ebfdba49dda")
    (attr through_hole)
    (fp_text reference "J3" (at 1.5 -1.96) (layer "F.SilkS")
        (effects (font (size 1 1) (thickness 0.15)))
      (tstamp 5459e78b-b4ee-4e3c-bd1c-95b1fbe6e765)
    )
    (fp_text value "Conn_01x02" (at 0 4.87) (layer "F.Fab")
        (effects (font (size 1 1) (thickness 0.15)))
      (tstamp 035a8f4c-6a77-46a9-b103-d3da1809b15a)
    )
    (fp_text user "${REFERENCE}" (at 0 1.27 90) (layer "F.Fab")
        (effects (font (size 1 1) (thickness 0.15)))
      (tstamp 7dd1df6f-7d7c-49e2-b36d-80db29e14e78)
    )
    (fp_line (start -1.33 -1.33) (end 0 -1.33)
      (stroke (width 0.12) (type solid)) (layer "F.SilkS") (tstamp a1f188f0-541a-47b6-a662-fc01ba78228b))
    (fp_line (start -1.33 0) (end -1.33 -1.33)
      (stroke (width 0.12) (type solid)) (layer "F.SilkS") (tstamp c8df9b32-8d00-4b9d-bc2e-952ad2d64598))
    (fp_line (start -1.33 1.27) (end -1.33 3.87)
      (stroke (width 0.12) (type solid)) (layer "F.SilkS") (tstamp 65af63fc-c7b0-4e0c-9b02-c8c2113158f4))
    (fp_line (start -1.33 1.27) (end 1.33 1.27)
      (stroke (width 0.12) (type solid)) (layer "F.SilkS") (tstamp a0ee8020-9c41-4e66-976c-82913909d7aa))
    (fp_line (start -1.33 3.87) (end 1.33 3.87)
      (stroke (width 0.12) (type solid)) (layer "F.SilkS") (tstamp 5c698b41-c2f0-4cb7-ad0f-6686e377ad96))
    (fp_line (start 1.33 1.27) (end 1.33 3.87)
      (stroke (width 0.12) (type solid)) (layer "F.SilkS") (tstamp a68df4f4-560a-4156-b47a-67141e4fd048))
    (fp_line (start -1.8 -1.8) (end -1.8 4.35)
      (stroke (width 0.05) (type solid)) (layer "F.CrtYd") (tstamp d5d4c529-e14b-4b1e-9204-58af0a03dd0e))
    (fp_line (start -1.8 4.35) (end 1.8 4.35)
      (stroke (width 0.05) (type solid)) (layer "F.CrtYd") (tstamp f0ea2155-f2f9-4341-a09f-029b4edf7cb8))
    (fp_line (start 1.8 -1.8) (end -1.8 -1.8)
      (stroke (width 0.05) (type solid)) (layer "F.CrtYd") (tstamp 91d80c09-e5c0-45f8-a3c3-3ecfc5c40131))
    (fp_line (start 1.8 4.35) (end 1.8 -1.8)
      (stroke (width 0.05) (type solid)) (layer "F.CrtYd") (tstamp f45160bd-ce8d-453c-8dc2-b8ccd00254de))
    (fp_line (start -1.27 -0.635) (end -0.635 -1.27)
      (stroke (width 0.1) (type solid)) (layer "F.Fab") (tstamp 973a476d-815a-45f3-ae53-ff1f03e1bea3))
    (fp_line (start -1.27 3.81) (end -1.27 -0.635)
      (stroke (width 0.1) (type solid)) (layer "F.Fab") (tstamp 02fae3c0-9327-4f0d-8a74-74c048a64571))
    (fp_line (start -0.635 -1.27) (end 1.27 -1.27)
      (stroke (width 0.1) (type solid)) (layer "F.Fab") (tstamp d94c6b74-c8fb-450b-887d-34fb7a4034bc))
    (fp_line (start 1.27 -1.27) (end 1.27 3.81)
      (stroke (width 0.1) (type solid)) (layer "F.Fab") (tstamp ebb212b9-15cb-4da2-8e7a-e8a18f0bf32a))
    (fp_line (start 1.27 3.81) (end -1.27 3.81)
      (stroke (width 0.1) (type solid)) (layer "F.Fab") (tstamp 9cde13b9-0769-49f2-80e5-763f4b9afb47))
    (pad "1" thru_hole rect (at 0 0) (size 1.7 1.7) (drill 1) (layers "*.Cu" "*.Mask")
      (net 1 "VCC_B") (pinfunction "Pin_1") (pintype "passive") (tstamp 615d949b-5e12-409f-9ae6-5c6c26606383))
    (pad "2" thru_hole oval (at 0 2.54) (size 1.7 1.7) (drill 1) (layers "*.Cu" "*.Mask")
      (net 2 "GND") (pinfunction "Pin_2") (pintype "passive") (tstamp ff59e800-74c7-4924-bbc5-eed28a5f4172))
    (model "${KICAD6_3DMODEL_DIR}/Connector_PinHeader_2.54mm.3dshapes/PinHeader_1x02_P2.54mm_Vertical.wrl"
      (offset (xyz 0 0 0))
      (scale (xyz 1 1 1))
      (rotate (xyz 0 0 0))
    )
  )

  (footprint "Connector_PinHeader_2.54mm:PinHeader_1x02_P2.54mm_Vertical" (layer "F.Cu")
    (tstamp 3d289dd8-a497-4c74-8d7d-aa39f472c51c)
    (at 216 113.5)
    (descr "Through hole straight pin header, 1x02, 2.54mm pitch, single row")
    (tags "Through hole pin header THT 1x02 2.54mm single row")
    (property "Sheetfile" "Lasers_Daughterboard_R1.kicad_sch")
    (property "Sheetname" "")
    (property "ki_description" "Generic connector, single row, 01x02, script generated (kicad-library-utils/schlib/autogen/connector/)")
    (property "ki_keywords" "connector")
    (path "/16fbbb8a-ea84-4d63-80fd-789773755711")
    (attr through_hole)
    (fp_text reference "J8" (at 1 -2) (layer "F.SilkS")
        (effects (font (size 1 1) (thickness 0.15)))
      (tstamp 12f4da7b-6e2d-419a-88a8-58a066f53f9f)
    )
    (fp_text value "Conn_01x02" (at 0 4.87) (layer "F.Fab")
        (effects (font (size 1 1) (thickness 0.15)))
      (tstamp b4f7db54-d1fb-4d47-99ce-6b8bd2c9aa1e)
    )
    (fp_text user "${REFERENCE}" (at 0 1.27 90) (layer "F.Fab")
        (effects (font (size 1 1) (thickness 0.15)))
      (tstamp 1fe6cccf-0c38-48c4-aa1c-1898ee01b5cc)
    )
    (fp_line (start -1.33 -1.33) (end 0 -1.33)
      (stroke (width 0.12) (type solid)) (layer "F.SilkS") (tstamp 83df4ccd-95a9-44ac-b827-f9a9eca4e9c2))
    (fp_line (start -1.33 0) (end -1.33 -1.33)
      (stroke (width 0.12) (type solid)) (layer "F.SilkS") (tstamp 8bb01cc6-3605-47c1-bd9d-b98c847a174c))
    (fp_line (start -1.33 1.27) (end -1.33 3.87)
      (stroke (width 0.12) (type solid)) (layer "F.SilkS") (tstamp 39c3fa50-853d-44ee-a2cc-eb1407d1400e))
    (fp_line (start -1.33 1.27) (end 1.33 1.27)
      (stroke (width 0.12) (type solid)) (layer "F.SilkS") (tstamp c5bbd6a5-960e-496b-9310-0b1714be2e7b))
    (fp_line (start -1.33 3.87) (end 1.33 3.87)
      (stroke (width 0.12) (type solid)) (layer "F.SilkS") (tstamp 1ee0fc1b-df1f-4a27-9b10-1dfa9a100352))
    (fp_line (start 1.33 1.27) (end 1.33 3.87)
      (stroke (width 0.12) (type solid)) (layer "F.SilkS") (tstamp 994a2e6d-bdca-4831-ae25-463ee1d11d14))
    (fp_line (start -1.8 -1.8) (end -1.8 4.35)
      (stroke (width 0.05) (type solid)) (layer "F.CrtYd") (tstamp e26c0aed-09b2-4162-ba70-f3152a638379))
    (fp_line (start -1.8 4.35) (end 1.8 4.35)
      (stroke (width 0.05) (type solid)) (layer "F.CrtYd") (tstamp e2202405-b607-45f8-bf13-1b45e5678192))
    (fp_line (start 1.8 -1.8) (end -1.8 -1.8)
      (stroke (width 0.05) (type solid)) (layer "F.CrtYd") (tstamp 1fa89931-3eff-4117-ab69-ac850b29be32))
    (fp_line (start 1.8 4.35) (end 1.8 -1.8)
      (stroke (width 0.05) (type solid)) (layer "F.CrtYd") (tstamp 76f46e0c-7cf5-453f-8e01-0b06ccbf7326))
    (fp_line (start -1.27 -0.635) (end -0.635 -1.27)
      (stroke (width 0.1) (type solid)) (layer "F.Fab") (tstamp c93911a7-7b1c-48a3-8ebd-4f1b64d165bd))
    (fp_line (start -1.27 3.81) (end -1.27 -0.635)
      (stroke (width 0.1) (type solid)) (layer "F.Fab") (tstamp ab39c87e-4edf-4536-a7f0-b4697c0ead8e))
    (fp_line (start -0.635 -1.27) (end 1.27 -1.27)
      (stroke (width 0.1) (type solid)) (layer "F.Fab") (tstamp e8fc7b74-fc81-4fc7-a7a1-2d2c462c9bf4))
    (fp_line (start 1.27 -1.27) (end 1.27 3.81)
      (stroke (width 0.1) (type solid)) (layer "F.Fab") (tstamp 690f8bb5-a13c-4b9a-b665-d0f78e219068))
    (fp_line (start 1.27 3.81) (end -1.27 3.81)
      (stroke (width 0.1) (type solid)) (layer "F.Fab") (tstamp c532a0c5-ba37-4d2b-b6cf-976adbc2c09c))
    (pad "1" thru_hole rect (at 0 0) (size 1.7 1.7) (drill 1) (layers "*.Cu" "*.Mask")
      (net 3 "VCC_A") (pinfunction "Pin_1") (pintype "passive") (tstamp 26c6da3f-e3bb-4041-94c6-899c54b4ffee))
    (pad "2" thru_hole oval (at 0 2.54) (size 1.7 1.7) (drill 1) (layers "*.Cu" "*.Mask")
      (net 2 "GND") (pinfunction "Pin_2") (pintype "passive") (tstamp 9a3e34d4-1ff8-4e10-b34e-8c56bbf3321d))
    (model "${KICAD6_3DMODEL_DIR}/Connector_PinHeader_2.54mm.3dshapes/PinHeader_1x02_P2.54mm_Vertical.wrl"
      (offset (xyz 0 0 0))
      (scale (xyz 1 1 1))
      (rotate (xyz 0 0 0))
    )
  )

  (footprint "Connector_PinHeader_2.54mm:PinHeader_1x02_P2.54mm_Vertical" (layer "F.Cu")
    (tstamp 4e3a2050-09a8-47b9-bbad-3e649b4db7ae)
    (at 220 113.5)
    (descr "Through hole straight pin header, 1x02, 2.54mm pitch, single row")
    (tags "Through hole pin header THT 1x02 2.54mm single row")
    (property "Sheetfile" "Lasers_Daughterboard_R1.kicad_sch")
    (property "Sheetname" "")
    (property "ki_description" "Generic connector, single row, 01x02, script generated (kicad-library-utils/schlib/autogen/connector/)")
    (property "ki_keywords" "connector")
    (path "/710668cd-d395-4279-97a1-0e114416c418")
    (attr through_hole)
    (fp_text reference "J2" (at 0.5 -2) (layer "F.SilkS")
        (effects (font (size 1 1) (thickness 0.15)))
      (tstamp 99ea39a1-62b4-45d4-97e5-1889b94b3870)
    )
    (fp_text value "Conn_01x02" (at 0 4.87) (layer "F.Fab")
        (effects (font (size 1 1) (thickness 0.15)))
      (tstamp 8bb657b8-12c9-4f8d-8ceb-fe878758e1b0)
    )
    (fp_text user "${REFERENCE}" (at 0 1.27 90) (layer "F.Fab")
        (effects (font (size 1 1) (thickness 0.15)))
      (tstamp c7a76d00-515b-4457-9ae5-68cd9c2410c5)
    )
    (fp_line (start -1.33 -1.33) (end 0 -1.33)
      (stroke (width 0.12) (type solid)) (layer "F.SilkS") (tstamp cebb68c6-21da-4f63-ab62-6bec0b0fa667))
    (fp_line (start -1.33 0) (end -1.33 -1.33)
      (stroke (width 0.12) (type solid)) (layer "F.SilkS") (tstamp 67f38ad5-6f79-46a2-8504-0a3bc7c1ee94))
    (fp_line (start -1.33 1.27) (end -1.33 3.87)
      (stroke (width 0.12) (type solid)) (layer "F.SilkS") (tstamp b3c9b502-d51a-4eaa-a654-03e6613f2336))
    (fp_line (start -1.33 1.27) (end 1.33 1.27)
      (stroke (width 0.12) (type solid)) (layer "F.SilkS") (tstamp 0b882625-af73-4f30-a600-c0101ae3c144))
    (fp_line (start -1.33 3.87) (end 1.33 3.87)
      (stroke (width 0.12) (type solid)) (layer "F.SilkS") (tstamp 095f96fa-e9b4-441a-b860-10e1ed996fa4))
    (fp_line (start 1.33 1.27) (end 1.33 3.87)
      (stroke (width 0.12) (type solid)) (layer "F.SilkS") (tstamp 387e486d-a5f8-4f2e-9c89-daf031bc5468))
    (fp_line (start -1.8 -1.8) (end -1.8 4.35)
      (stroke (width 0.05) (type solid)) (layer "F.CrtYd") (tstamp 4ca5b718-3b92-475d-8d14-5c987649fa84))
    (fp_line (start -1.8 4.35) (end 1.8 4.35)
      (stroke (width 0.05) (type solid)) (layer "F.CrtYd") (tstamp 3fc887ba-db4e-499e-b38a-c4fcca2b71bf))
    (fp_line (start 1.8 -1.8) (end -1.8 -1.8)
      (stroke (width 0.05) (type solid)) (layer "F.CrtYd") (tstamp 23d16c5d-9474-4026-b4c6-70a8d2974d75))
    (fp_line (start 1.8 4.35) (end 1.8 -1.8)
      (stroke (width 0.05) (type solid)) (layer "F.CrtYd") (tstamp 6e104a74-1eb2-476b-bd16-f4e3fcfe2ce0))
    (fp_line (start -1.27 -0.635) (end -0.635 -1.27)
      (stroke (width 0.1) (type solid)) (layer "F.Fab") (tstamp 9c38e1b5-c595-40a5-beb6-012a8b4cc931))
    (fp_line (start -1.27 3.81) (end -1.27 -0.635)
      (stroke (width 0.1) (type solid)) (layer "F.Fab") (tstamp 6120f227-7f03-4128-8bfd-63b8788f843d))
    (fp_line (start -0.635 -1.27) (end 1.27 -1.27)
      (stroke (width 0.1) (type solid)) (layer "F.Fab") (tstamp 026b4a98-8378-4495-8f85-5532557d5be2))
    (fp_line (start 1.27 -1.27) (end 1.27 3.81)
      (stroke (width 0.1) (type solid)) (layer "F.Fab") (tstamp 9f1c5256-5fa7-4ee5-9da5-edb29fd21d0d))
    (fp_line (start 1.27 3.81) (end -1.27 3.81)
      (stroke (width 0.1) (type solid)) (layer "F.Fab") (tstamp 33d4b936-01c6-45d9-8c2a-dc3ad3dfb4e2))
    (pad "1" thru_hole rect (at 0 0) (size 1.7 1.7) (drill 1) (layers "*.Cu" "*.Mask")
      (net 3 "VCC_A") (pinfunction "Pin_1") (pintype "passive") (tstamp b72d6d9d-aafa-41be-b473-5eee3b85e7ce))
    (pad "2" thru_hole oval (at 0 2.54) (size 1.7 1.7) (drill 1) (layers "*.Cu" "*.Mask")
      (net 2 "GND") (pinfunction "Pin_2") (pintype "passive") (tstamp 687a175d-1efd-4691-83f0-9841ea04bf67))
    (model "${KICAD6_3DMODEL_DIR}/Connector_PinHeader_2.54mm.3dshapes/PinHeader_1x02_P2.54mm_Vertical.wrl"
      (offset (xyz 0 0 0))
      (scale (xyz 1 1 1))
      (rotate (xyz 0 0 0))
    )
  )

  (footprint "Connector_PinHeader_2.54mm:PinHeader_1x02_P2.54mm_Vertical" (layer "F.Cu")
    (tstamp 58df7b23-1879-4d8b-a750-0e350236158c)
    (at 173.5 113.5)
    (descr "Through hole straight pin header, 1x02, 2.54mm pitch, single row")
    (tags "Through hole pin header THT 1x02 2.54mm single row")
    (property "Sheetfile" "Lasers_Daughterboard_R1.kicad_sch")
    (property "Sheetname" "")
    (property "ki_description" "Generic connector, single row, 01x02, script generated (kicad-library-utils/schlib/autogen/connector/)")
    (property "ki_keywords" "connector")
    (path "/6dc38944-d512-4a40-bb86-be94d2c13195")
    (attr through_hole)
    (fp_text reference "J4" (at 1.5 -2) (layer "F.SilkS")
        (effects (font (size 1 1) (thickness 0.15)))
      (tstamp a075b25d-8c13-4264-a4bd-6a7d46493799)
    )
    (fp_text value "Conn_01x02" (at 0 4.87) (layer "F.Fab")
        (effects (font (size 1 1) (thickness 0.15)))
      (tstamp 5ee24612-9046-4d05-8d19-093d2ae0d8a4)
    )
    (fp_text user "${REFERENCE}" (at 0 1.27 90) (layer "F.Fab")
        (effects (font (size 1 1) (thickness 0.15)))
      (tstamp 25b6254e-fbcf-44b5-9316-79faca5b9d34)
    )
    (fp_line (start -1.33 -1.33) (end 0 -1.33)
      (stroke (width 0.12) (type solid)) (layer "F.SilkS") (tstamp 218056ff-4498-413a-8b02-20bf73a38304))
    (fp_line (start -1.33 0) (end -1.33 -1.33)
      (stroke (width 0.12) (type solid)) (layer "F.SilkS") (tstamp a7614527-d585-4afb-a3c1-00672b1724e8))
    (fp_line (start -1.33 1.27) (end -1.33 3.87)
      (stroke (width 0.12) (type solid)) (layer "F.SilkS") (tstamp 691c83a9-0393-4cee-8fd4-457208af610a))
    (fp_line (start -1.33 1.27) (end 1.33 1.27)
      (stroke (width 0.12) (type solid)) (layer "F.SilkS") (tstamp 79be7598-858a-4003-a952-fd8379ae23b7))
    (fp_line (start -1.33 3.87) (end 1.33 3.87)
      (stroke (width 0.12) (type solid)) (layer "F.SilkS") (tstamp 934eb966-8245-4b22-bd98-0f22ade1710f))
    (fp_line (start 1.33 1.27) (end 1.33 3.87)
      (stroke (width 0.12) (type solid)) (layer "F.SilkS") (tstamp af4bbf71-a83a-402e-ad8b-6e2003a26bc1))
    (fp_line (start -1.8 -1.8) (end -1.8 4.35)
      (stroke (width 0.05) (type solid)) (layer "F.CrtYd") (tstamp 1bd097c6-7396-4c0d-adb6-5ca98f0a8389))
    (fp_line (start -1.8 4.35) (end 1.8 4.35)
      (stroke (width 0.05) (type solid)) (layer "F.CrtYd") (tstamp dd40d469-56a9-48f0-b1e5-75df2aeb7951))
    (fp_line (start 1.8 -1.8) (end -1.8 -1.8)
      (stroke (width 0.05) (type solid)) (layer "F.CrtYd") (tstamp 7b4bb014-297d-4cf8-abd9-00f5b8577c0d))
    (fp_line (start 1.8 4.35) (end 1.8 -1.8)
      (stroke (width 0.05) (type solid)) (layer "F.CrtYd") (tstamp b93f1ee4-8c85-4350-ba30-0efa75c166f7))
    (fp_line (start -1.27 -0.635) (end -0.635 -1.27)
      (stroke (width 0.1) (type solid)) (layer "F.Fab") (tstamp 0c9e8a0b-f50d-4445-a62e-42a8eef7f0e4))
    (fp_line (start -1.27 3.81) (end -1.27 -0.635)
      (stroke (width 0.1) (type solid)) (layer "F.Fab") (tstamp cb76fe45-78ee-4561-8522-b7bafb0abd0a))
    (fp_line (start -0.635 -1.27) (end 1.27 -1.27)
      (stroke (width 0.1) (type solid)) (layer "F.Fab") (tstamp 4a6534ef-a2d0-4a2a-9404-d287fca1f1a9))
    (fp_line (start 1.27 -1.27) (end 1.27 3.81)
      (stroke (width 0.1) (type solid)) (layer "F.Fab") (tstamp bdd6cdcf-87e8-4de3-91c9-6dc47e16f3a3))
    (fp_line (start 1.27 3.81) (end -1.27 3.81)
      (stroke (width 0.1) (type solid)) (layer "F.Fab") (tstamp 172b5e62-4105-4c62-bf17-4a9c2ed8a7db))
    (pad "1" thru_hole rect (at 0 0) (size 1.7 1.7) (drill 1) (layers "*.Cu" "*.Mask")
      (net 1 "VCC_B") (pinfunction "Pin_1") (pintype "passive") (tstamp 19d9a045-17d2-433e-9194-4b6d23c5a435))
    (pad "2" thru_hole oval (at 0 2.54) (size 1.7 1.7) (drill 1) (layers "*.Cu" "*.Mask")
      (net 2 "GND") (pinfunction "Pin_2") (pintype "passive") (tstamp acc57d65-994f-4956-a3ad-c7b846f2576c))
    (model "${KICAD6_3DMODEL_DIR}/Connector_PinHeader_2.54mm.3dshapes/PinHeader_1x02_P2.54mm_Vertical.wrl"
      (offset (xyz 0 0 0))
      (scale (xyz 1 1 1))
      (rotate (xyz 0 0 0))
    )
  )

  (footprint "Connector_PinHeader_2.54mm:PinHeader_1x02_P2.54mm_Vertical" (layer "F.Cu")
    (tstamp 988f9e5a-6dec-47a7-9808-8e3ad19b9c6d)
    (at 159.5 113.5)
    (descr "Through hole straight pin header, 1x02, 2.54mm pitch, single row")
    (tags "Through hole pin header THT 1x02 2.54mm single row")
    (property "Sheetfile" "Lasers_Daughterboard_R1.kicad_sch")
    (property "Sheetname" "")
    (property "ki_description" "Generic connector, single row, 01x02, script generated (kicad-library-utils/schlib/autogen/connector/)")
    (property "ki_keywords" "connector")
    (path "/c5dc2945-4ac3-4a55-91de-9ae431e19b04")
    (attr through_hole)
    (fp_text reference "J1" (at 0.5 -2) (layer "F.SilkS")
        (effects (font (size 1 1) (thickness 0.15)))
      (tstamp b1aa38bc-6ec7-4431-98df-4935d31cb9d1)
    )
    (fp_text value "Conn_01x02" (at 0 4.87) (layer "F.Fab")
        (effects (font (size 1 1) (thickness 0.15)))
      (tstamp b54f918a-5f1d-4c16-bec7-ac8e05eec136)
    )
    (fp_text user "${REFERENCE}" (at 0 1.27 90) (layer "F.Fab")
        (effects (font (size 1 1) (thickness 0.15)))
      (tstamp b0752fb0-449b-42ec-b602-36e29949f5a3)
    )
    (fp_line (start -1.33 -1.33) (end 0 -1.33)
      (stroke (width 0.12) (type solid)) (layer "F.SilkS") (tstamp 3708db10-9b49-43ec-9e88-b3c6e3b16707))
    (fp_line (start -1.33 0) (end -1.33 -1.33)
      (stroke (width 0.12) (type solid)) (layer "F.SilkS") (tstamp 856a41b2-59b8-4f96-86b0-5e07c7fbdd3d))
    (fp_line (start -1.33 1.27) (end -1.33 3.87)
      (stroke (width 0.12) (type solid)) (layer "F.SilkS") (tstamp b64a29ba-345b-49fe-ae62-44bd9084f23a))
    (fp_line (start -1.33 1.27) (end 1.33 1.27)
      (stroke (width 0.12) (type solid)) (layer "F.SilkS") (tstamp 25c5cdba-482a-432f-a31b-43470710f802))
    (fp_line (start -1.33 3.87) (end 1.33 3.87)
      (stroke (width 0.12) (type solid)) (layer "F.SilkS") (tstamp 257a6953-32b9-4cf8-9a38-33a8078a212e))
    (fp_line (start 1.33 1.27) (end 1.33 3.87)
      (stroke (width 0.12) (type solid)) (layer "F.SilkS") (tstamp 665e7070-32b2-4457-a301-5e6702953ec7))
    (fp_line (start -1.8 -1.8) (end -1.8 4.35)
      (stroke (width 0.05) (type solid)) (layer "F.CrtYd") (tstamp 750e27f5-27a4-46e6-b82a-dfce3a86f62d))
    (fp_line (start -1.8 4.35) (end 1.8 4.35)
      (stroke (width 0.05) (type solid)) (layer "F.CrtYd") (tstamp 50a7b715-98c8-4394-8bb6-259d8acbecd8))
    (fp_line (start 1.8 -1.8) (end -1.8 -1.8)
      (stroke (width 0.05) (type solid)) (layer "F.CrtYd") (tstamp 5c08dfd0-55c0-4540-b2af-a53e922193c4))
    (fp_line (start 1.8 4.35) (end 1.8 -1.8)
      (stroke (width 0.05) (type solid)) (layer "F.CrtYd") (tstamp 9c76ace0-df44-4898-a168-9e47331c179f))
    (fp_line (start -1.27 -0.635) (end -0.635 -1.27)
      (stroke (width 0.1) (type solid)) (layer "F.Fab") (tstamp fc0369a4-6617-43ef-a6bc-23bfc6cf3b3e))
    (fp_line (start -1.27 3.81) (end -1.27 -0.635)
      (stroke (width 0.1) (type solid)) (layer "F.Fab") (tstamp 65cdce47-e434-499d-94c4-b0cdeb8a38e5))
    (fp_line (start -0.635 -1.27) (end 1.27 -1.27)
      (stroke (width 0.1) (type solid)) (layer "F.Fab") (tstamp 008a583a-f3a3-413b-aa9c-7a43aebd05bb))
    (fp_line (start 1.27 -1.27) (end 1.27 3.81)
      (stroke (width 0.1) (type solid)) (layer "F.Fab") (tstamp cc6f0751-660e-402e-8051-9d1916419830))
    (fp_line (start 1.27 3.81) (end -1.27 3.81)
      (stroke (width 0.1) (type solid)) (layer "F.Fab") (tstamp 5c77bfa2-41a1-4d4b-9572-d49d85d3186b))
    (pad "1" thru_hole rect (at 0 0) (size 1.7 1.7) (drill 1) (layers "*.Cu" "*.Mask")
      (net 1 "VCC_B") (pinfunction "Pin_1") (pintype "passive") (tstamp 36294676-d7ef-4595-ac7d-a1a36236ff70))
    (pad "2" thru_hole oval (at 0 2.54) (size 1.7 1.7) (drill 1) (layers "*.Cu" "*.Mask")
      (net 2 "GND") (pinfunction "Pin_2") (pintype "passive") (tstamp 24c478f0-0d29-4aa5-9b1b-d7c1b2e0ae5c))
    (model "${KICAD6_3DMODEL_DIR}/Connector_PinHeader_2.54mm.3dshapes/PinHeader_1x02_P2.54mm_Vertical.wrl"
      (offset (xyz 0 0 0))
      (scale (xyz 1 1 1))
      (rotate (xyz 0 0 0))
    )
  )

  (footprint "Connector_PinHeader_2.54mm:PinHeader_1x02_P2.54mm_Vertical" (layer "F.Cu")
    (tstamp c809dd00-037f-47e9-b896-55156b3aabde)
    (at 207 113.5)
    (descr "Through hole straight pin header, 1x02, 2.54mm pitch, single row")
    (tags "Through hole pin header THT 1x02 2.54mm single row")
    (property "Sheetfile" "Lasers_Daughterboard_R1.kicad_sch")
    (property "Sheetname" "")
    (property "ki_description" "Generic connector, single row, 01x02, script generated (kicad-library-utils/schlib/autogen/connector/)")
    (property "ki_keywords" "connector")
    (path "/e72b9755-28cd-4907-926b-ea70799c9033")
    (attr through_hole)
    (fp_text reference "J7" (at 1.5 -2) (layer "F.SilkS")
        (effects (font (size 1 1) (thickness 0.15)))
      (tstamp 8441c2ea-c58c-4fa9-b1ba-71d61b2ba803)
    )
    (fp_text value "Conn_01x02" (at 0 4.87) (layer "F.Fab")
        (effects (font (size 1 1) (thickness 0.15)))
      (tstamp 1c5b6794-dd3e-480b-a2ae-facfbc8f486e)
    )
    (fp_text user "${REFERENCE}" (at 0 1.27 90) (layer "F.Fab")
        (effects (font (size 1 1) (thickness 0.15)))
      (tstamp ec21418a-8c79-4a0e-88a8-fee0c265ca70)
    )
    (fp_line (start -1.33 -1.33) (end 0 -1.33)
      (stroke (width 0.12) (type solid)) (layer "F.SilkS") (tstamp 8b964ea1-fb4a-4a14-94ce-f7845b44cb6c))
    (fp_line (start -1.33 0) (end -1.33 -1.33)
      (stroke (width 0.12) (type solid)) (layer "F.SilkS") (tstamp c7f7f7f8-2ad1-4b32-99ef-8d7cf91e4583))
    (fp_line (start -1.33 1.27) (end -1.33 3.87)
      (stroke (width 0.12) (type solid)) (layer "F.SilkS") (tstamp 70a718eb-a945-4949-a517-9bc9ff89cb26))
    (fp_line (start -1.33 1.27) (end 1.33 1.27)
      (stroke (width 0.12) (type solid)) (layer "F.SilkS") (tstamp 9cfc836c-d5a5-4bb5-989e-f9b2311f003c))
    (fp_line (start -1.33 3.87) (end 1.33 3.87)
      (stroke (width 0.12) (type solid)) (layer "F.SilkS") (tstamp 34585be3-eb3f-418b-b9fb-cf4e8255dbc4))
    (fp_line (start 1.33 1.27) (end 1.33 3.87)
      (stroke (width 0.12) (type solid)) (layer "F.SilkS") (tstamp 3bf5a953-696f-4996-97d2-e5507858dc01))
    (fp_line (start -1.8 -1.8) (end -1.8 4.35)
      (stroke (width 0.05) (type solid)) (layer "F.CrtYd") (tstamp b77162a0-8627-4db8-ac40-3061d951798b))
    (fp_line (start -1.8 4.35) (end 1.8 4.35)
      (stroke (width 0.05) (type solid)) (layer "F.CrtYd") (tstamp b04fd46a-67e6-4b03-9f82-fe9ce4a610f1))
    (fp_line (start 1.8 -1.8) (end -1.8 -1.8)
      (stroke (width 0.05) (type solid)) (layer "F.CrtYd") (tstamp d898157d-0e40-4028-976f-607f42363d59))
    (fp_line (start 1.8 4.35) (end 1.8 -1.8)
      (stroke (width 0.05) (type solid)) (layer "F.CrtYd") (tstamp 9e17b882-9556-4816-9943-a625f045f279))
    (fp_line (start -1.27 -0.635) (end -0.635 -1.27)
      (stroke (width 0.1) (type solid)) (layer "F.Fab") (tstamp 9f9b9979-16f9-4e7e-be0d-5683b8bff106))
    (fp_line (start -1.27 3.81) (end -1.27 -0.635)
      (stroke (width 0.1) (type solid)) (layer "F.Fab") (tstamp 6e0b9411-6e5f-4749-87ce-69f86c3824aa))
    (fp_line (start -0.635 -1.27) (end 1.27 -1.27)
      (stroke (width 0.1) (type solid)) (layer "F.Fab") (tstamp 6f806476-a0eb-4afc-81d9-fa8918d54cf2))
    (fp_line (start 1.27 -1.27) (end 1.27 3.81)
      (stroke (width 0.1) (type solid)) (layer "F.Fab") (tstamp 907fac7d-cb4e-4801-af8b-4d448cb1b5cd))
    (fp_line (start 1.27 3.81) (end -1.27 3.81)
      (stroke (width 0.1) (type solid)) (layer "F.Fab") (tstamp 384bcf02-3bd3-479b-a3e8-8b123f47dd98))
    (pad "1" thru_hole rect (at 0 0) (size 1.7 1.7) (drill 1) (layers "*.Cu" "*.Mask")
      (net 3 "VCC_A") (pinfunction "Pin_1") (pintype "passive") (tstamp 952fbbea-bb1f-4e52-82dd-24fceea07a7e))
    (pad "2" thru_hole oval (at 0 2.54) (size 1.7 1.7) (drill 1) (layers "*.Cu" "*.Mask")
      (net 2 "GND") (pinfunction "Pin_2") (pintype "passive") (tstamp 7f89552c-967c-4461-b998-28442a91acf8))
    (model "${KICAD6_3DMODEL_DIR}/Connector_PinHeader_2.54mm.3dshapes/PinHeader_1x02_P2.54mm_Vertical.wrl"
      (offset (xyz 0 0 0))
      (scale (xyz 1 1 1))
      (rotate (xyz 0 0 0))
    )
  )

  (footprint "Connector_PinHeader_2.54mm:PinHeader_1x02_P2.54mm_Vertical" (layer "F.Cu")
    (tstamp edd55a8c-6a82-42b8-98c6-9c3bd9e5fb0f)
    (at 197 113.5)
    (descr "Through hole straight pin header, 1x02, 2.54mm pitch, single row")
    (tags "Through hole pin header THT 1x02 2.54mm single row")
    (property "Sheetfile" "Lasers_Daughterboard_R1.kicad_sch")
    (property "Sheetname" "")
    (property "ki_description" "Generic connector, single row, 01x02, script generated (kicad-library-utils/schlib/autogen/connector/)")
    (property "ki_keywords" "connector")
    (path "/eb5775bb-423e-4fd4-b975-8cf568eba88e")
    (attr through_hole)
    (fp_text reference "J6" (at 1 -2) (layer "F.SilkS")
        (effects (font (size 1 1) (thickness 0.15)))
      (tstamp f1e1b51e-25d4-45e6-9a31-597724ceada4)
    )
    (fp_text value "Conn_01x02" (at 0 4.87) (layer "F.Fab")
        (effects (font (size 1 1) (thickness 0.15)))
      (tstamp c68eb2fd-8f28-42d1-bb4e-786241c7ce43)
    )
    (fp_text user "${REFERENCE}" (at 0 1.27 90) (layer "F.Fab")
        (effects (font (size 1 1) (thickness 0.15)))
      (tstamp 6d473a31-fae4-4638-8088-f518cd7d7f29)
    )
    (fp_line (start -1.33 -1.33) (end 0 -1.33)
      (stroke (width 0.12) (type solid)) (layer "F.SilkS") (tstamp be89d8a3-f945-43d5-8bac-9875e440cf3f))
    (fp_line (start -1.33 0) (end -1.33 -1.33)
      (stroke (width 0.12) (type solid)) (layer "F.SilkS") (tstamp 53049940-c64a-4e44-92ee-6779d4d3b0a9))
    (fp_line (start -1.33 1.27) (end -1.33 3.87)
      (stroke (width 0.12) (type solid)) (layer "F.SilkS") (tstamp 3d7de3f8-05e2-4fa4-b6a4-bbbbe31e6c3a))
    (fp_line (start -1.33 1.27) (end 1.33 1.27)
      (stroke (width 0.12) (type solid)) (layer "F.SilkS") (tstamp d1569eff-08bd-4d7c-9a11-4c0a659946f1))
    (fp_line (start -1.33 3.87) (end 1.33 3.87)
      (stroke (width 0.12) (type solid)) (layer "F.SilkS") (tstamp 738c8143-9ecd-4718-bd77-688f6734db39))
    (fp_line (start 1.33 1.27) (end 1.33 3.87)
      (stroke (width 0.12) (type solid)) (layer "F.SilkS") (tstamp 2e7b2178-9fc5-4acd-8ae5-39826ef661bd))
    (fp_line (start -1.8 -1.8) (end -1.8 4.35)
      (stroke (width 0.05) (type solid)) (layer "F.CrtYd") (tstamp f47dc133-d3b8-453f-aab1-ce7460d160bb))
    (fp_line (start -1.8 4.35) (end 1.8 4.35)
      (stroke (width 0.05) (type solid)) (layer "F.CrtYd") (tstamp aa967111-6cf0-47dc-997e-04b4712968ad))
    (fp_line (start 1.8 -1.8) (end -1.8 -1.8)
      (stroke (width 0.05) (type solid)) (layer "F.CrtYd") (tstamp 710eeb97-42f5-4560-a2d5-bb72b5b9df75))
    (fp_line (start 1.8 4.35) (end 1.8 -1.8)
      (stroke (width 0.05) (type solid)) (layer "F.CrtYd") (tstamp caaa24a1-9500-41fb-8929-5ecccc2cdf9b))
    (fp_line (start -1.27 -0.635) (end -0.635 -1.27)
      (stroke (width 0.1) (type solid)) (layer "F.Fab") (tstamp 778d99fc-d12a-42d4-a4a2-0f3816104d88))
    (fp_line (start -1.27 3.81) (end -1.27 -0.635)
      (stroke (width 0.1) (type solid)) (layer "F.Fab") (tstamp 11472469-46a6-4d5f-9e4e-8db9b7b8090a))
    (fp_line (start -0.635 -1.27) (end 1.27 -1.27)
      (stroke (width 0.1) (type solid)) (layer "F.Fab") (tstamp feb50768-1376-4352-a2a0-f9f84fcff85b))
    (fp_line (start 1.27 -1.27) (end 1.27 3.81)
      (stroke (width 0.1) (type solid)) (layer "F.Fab") (tstamp 3b296d5b-dac1-40fa-81aa-e3c31843d7c7))
    (fp_line (start 1.27 3.81) (end -1.27 3.81)
      (stroke (width 0.1) (type solid)) (layer "F.Fab") (tstamp f1a09e1c-e0c8-47bb-8a2f-7c22103b30a4))
    (pad "1" thru_hole rect (at 0 0) (size 1.7 1.7) (drill 1) (layers "*.Cu" "*.Mask")
      (net 3 "VCC_A") (pinfunction "Pin_1") (pintype "passive") (tstamp 9a28afcf-fe60-4ce7-861e-7d320b68af84))
    (pad "2" thru_hole oval (at 0 2.54) (size 1.7 1.7) (drill 1) (layers "*.Cu" "*.Mask")
      (net 2 "GND") (pinfunction "Pin_2") (pintype "passive") (tstamp 6c7f2ddc-a472-4552-b959-61ab7392d930))
    (model "${KICAD6_3DMODEL_DIR}/Connector_PinHeader_2.54mm.3dshapes/PinHeader_1x02_P2.54mm_Vertical.wrl"
      (offset (xyz 0 0 0))
      (scale (xyz 1 1 1))
      (rotate (xyz 0 0 0))
    )
  )

  (footprint "Connector_PinHeader_2.54mm:PinHeader_1x02_P2.54mm_Vertical" (layer "F.Cu")
    (tstamp ffbb827f-c107-4723-b6f8-c1bb8e197867)
    (at 184.5 113.5)
    (descr "Through hole straight pin header, 1x02, 2.54mm pitch, single row")
    (tags "Through hole pin header THT 1x02 2.54mm single row")
    (property "Sheetfile" "Lasers_Daughterboard_R1.kicad_sch")
    (property "Sheetname" "")
    (property "ki_description" "Generic connector, single row, 01x02, script generated (kicad-library-utils/schlib/autogen/connector/)")
    (property "ki_keywords" "connector")
    (path "/7f210282-ee1f-4ac5-8b9e-fc463e3b0e35")
    (attr through_hole)
    (fp_text reference "J5" (at 1.5 -2) (layer "F.SilkS")
        (effects (font (size 1 1) (thickness 0.15)))
      (tstamp 83ad0a07-e657-4cee-b1db-0cb248bf2444)
    )
    (fp_text value "Conn_01x02" (at 0 4.87) (layer "F.Fab")
        (effects (font (size 1 1) (thickness 0.15)))
      (tstamp 133b66d5-d594-4840-8395-87b7fc467935)
    )
    (fp_text user "${REFERENCE}" (at 0 1.27 90) (layer "F.Fab")
        (effects (font (size 1 1) (thickness 0.15)))
      (tstamp 639eeb31-4f44-4fad-a976-a5642fb41287)
    )
    (fp_line (start -1.33 -1.33) (end 0 -1.33)
      (stroke (width 0.12) (type solid)) (layer "F.SilkS") (tstamp 21adef55-d763-4112-9e73-3eac5050a3ab))
    (fp_line (start -1.33 0) (end -1.33 -1.33)
      (stroke (width 0.12) (type solid)) (layer "F.SilkS") (tstamp 16b42c07-e77f-4bc9-b5fb-fd0e25d2890b))
    (fp_line (start -1.33 1.27) (end -1.33 3.87)
      (stroke (width 0.12) (type solid)) (layer "F.SilkS") (tstamp b473a39f-780d-4367-9808-84aa5a022a4f))
    (fp_line (start -1.33 1.27) (end 1.33 1.27)
      (stroke (width 0.12) (type solid)) (layer "F.SilkS") (tstamp 3b0fd4dd-358c-4de5-a0a0-9bd367288b3b))
    (fp_line (start -1.33 3.87) (end 1.33 3.87)
      (stroke (width 0.12) (type solid)) (layer "F.SilkS") (tstamp 6bda5ac1-a48e-44a6-84d6-202a5dd64016))
    (fp_line (start 1.33 1.27) (end 1.33 3.87)
      (stroke (width 0.12) (type solid)) (layer "F.SilkS") (tstamp 865b4d34-d0cc-41df-a13f-ed6a4ff5978f))
    (fp_line (start -1.8 -1.8) (end -1.8 4.35)
      (stroke (width 0.05) (type solid)) (layer "F.CrtYd") (tstamp b645b3e5-673c-4656-9e1c-ca959d996ac7))
    (fp_line (start -1.8 4.35) (end 1.8 4.35)
      (stroke (width 0.05) (type solid)) (layer "F.CrtYd") (tstamp a891e610-5ae7-4e68-bd06-bbf00e34935c))
    (fp_line (start 1.8 -1.8) (end -1.8 -1.8)
      (stroke (width 0.05) (type solid)) (layer "F.CrtYd") (tstamp 63c30312-8da2-4795-afc3-27659775beac))
    (fp_line (start 1.8 4.35) (end 1.8 -1.8)
      (stroke (width 0.05) (type solid)) (layer "F.CrtYd") (tstamp 4871c0a6-0113-4803-8547-d8f98497322c))
    (fp_line (start -1.27 -0.635) (end -0.635 -1.27)
      (stroke (width 0.1) (type solid)) (layer "F.Fab") (tstamp 5ad323ff-64c0-445d-aeb9-2a28349847c7))
    (fp_line (start -1.27 3.81) (end -1.27 -0.635)
      (stroke (width 0.1) (type solid)) (layer "F.Fab") (tstamp b2d312d6-e4b6-46f2-9ee4-758a56c0e14c))
    (fp_line (start -0.635 -1.27) (end 1.27 -1.27)
      (stroke (width 0.1) (type solid)) (layer "F.Fab") (tstamp e983c9a9-007b-4476-bd94-74abab786adc))
    (fp_line (start 1.27 -1.27) (end 1.27 3.81)
      (stroke (width 0.1) (type solid)) (layer "F.Fab") (tstamp 7591e270-9262-4f26-a748-ffd0a5fdb5dc))
    (fp_line (start 1.27 3.81) (end -1.27 3.81)
      (stroke (width 0.1) (type solid)) (layer "F.Fab") (tstamp 1120b27a-186c-41df-8584-7813507c7e90))
    (pad "1" thru_hole rect (at 0 0) (size 1.7 1.7) (drill 1) (layers "*.Cu" "*.Mask")
      (net 1 "VCC_B") (pinfunction "Pin_1") (pintype "passive") (tstamp 16f2dc0b-cfdc-4f58-bd9b-192a0cf84d4e))
    (pad "2" thru_hole oval (at 0 2.54) (size 1.7 1.7) (drill 1) (layers "*.Cu" "*.Mask")
      (net 2 "GND") (pinfunction "Pin_2") (pintype "passive") (tstamp 61bcfd20-d639-469f-b730-eddf4e2042a9))
    (model "${KICAD6_3DMODEL_DIR}/Connector_PinHeader_2.54mm.3dshapes/PinHeader_1x02_P2.54mm_Vertical.wrl"
      (offset (xyz 0 0 0))
      (scale (xyz 1 1 1))
      (rotate (xyz 0 0 0))
    )
  )

  (gr_line (start 201 112.5) (end 201.5 112)
    (stroke (width 0.15) (type default)) (layer "F.SilkS") (tstamp 2b7275d7-4151-454e-8d12-b5cf3029f873))
  (gr_line (start 201 112.5) (end 200.5 112)
    (stroke (width 0.15) (type default)) (layer "F.SilkS") (tstamp 4c701824-9196-4d63-9568-a3dee66d4d85))
  (gr_circle (center 201 112.5) (end 201.5 112.5)
    (stroke (width 0.15) (type solid)) (fill solid) (layer "F.SilkS") (tstamp 5d0f10eb-88f1-4614-aeb3-b1ba1316be9e))
  (gr_line (start 202.5 113.5) (end 203.5 111.5)
    (stroke (width 0.15) (type default)) (layer "F.SilkS") (tstamp 683ad0cd-e908-4100-ad84-d6a7639fc4f4))
  (gr_line (start 201 112.5) (end 201.5 113)
    (stroke (width 0.15) (type default)) (layer "F.SilkS") (tstamp 9a104d16-8d1b-42cc-85ce-fd59e1fac025))
  (gr_line (start 201 112.5) (end 200.5 113)
    (stroke (width 0.15) (type default)) (layer "F.SilkS") (tstamp a6e640a0-cf55-4ed4-a6af-e2435223cdf5))
  (gr_line (start 199 112.5) (end 201 112.5)
    (stroke (width 0.15) (type default)) (layer "F.SilkS") (tstamp b528c220-e5c2-4e9e-b4d5-2454382ef136))
  (gr_line (start 201 112.5) (end 201 111.5)
    (stroke (width 0.15) (type default)) (layer "F.SilkS") (tstamp bb9912c2-c599-4e58-918a-2cf1162207ad))
  (gr_line (start 203.5 111.5) (end 204.5 113.5)
    (stroke (width 0.15) (type default)) (layer "F.SilkS") (tstamp cb710082-20e2-4a14-9df8-4b66dafdd5fd))
  (gr_rect (start 202.5 113.5) (end 204.5 113.5)
    (stroke (width 0.15) (type default)) (fill none) (layer "F.SilkS") (tstamp f041b387-a98f-4048-9d15-d3e778c4031e))
  (gr_line (start 201 112.5) (end 201 113.5)
    (stroke (width 0.15) (type default)) (layer "F.SilkS") (tstamp f04d93b3-f18a-4c1d-a9e7-aef377df6c04))
  (gr_line (start 201 112.5) (end 202 112.5)
    (stroke (width 0.15) (type default)) (layer "F.SilkS") (tstamp fb220c46-0be4-4a55-98cf-797c7abed5f1))
  (gr_line (start 158 118) (end 221 118)
    (stroke (width 0.1) (type default)) (layer "Edge.Cuts") (tstamp 27b07bcb-db6b-425a-adc4-0c9d555ec8c5))
  (gr_arc (start 157 112) (mid 157.292893 111.292893) (end 158 111)
    (stroke (width 0.1) (type default)) (layer "Edge.Cuts") (tstamp 35466bed-ce66-40ca-b31e-7927a6b6f2b2))
  (gr_line (start 157 112) (end 157 117)
    (stroke (width 0.1) (type default)) (layer "Edge.Cuts") (tstamp 368f1c13-0e6f-45fa-82e9-f1db4aea84be))
  (gr_line (start 221 111) (end 158 111)
    (stroke (width 0.1) (type default)) (layer "Edge.Cuts") (tstamp 4bbc612a-3549-4eef-9d33-e417ba0e56f7))
  (gr_arc (start 222 117) (mid 221.707107 117.707107) (end 221 118)
    (stroke (width 0.1) (type default)) (layer "Edge.Cuts") (tstamp b0cb7578-1140-4230-b876-cfabaedbb5d8))
  (gr_line (start 222 117) (end 222 112)
    (stroke (width 0.1) (type default)) (layer "Edge.Cuts") (tstamp b10b26c5-cad3-4ca9-b47a-52f1dbaf5231))
  (gr_arc (start 158 118) (mid 157.292893 117.707107) (end 157 117)
    (stroke (width 0.1) (type default)) (layer "Edge.Cuts") (tstamp c1810594-fd71-4158-b2b1-83f3cc596fbf))
  (gr_arc (start 221 111) (mid 221.707107 111.292893) (end 222 112)
    (stroke (width 0.1) (type default)) (layer "Edge.Cuts") (tstamp e5d8393b-fd21-482c-a4c9-88a97ba2dbbf))
  (gr_line (start 221 111) (end 222 112)
    (stroke (width 0.15) (type default)) (layer "Margin") (tstamp 4421dc1a-a7c0-4833-b642-2cbc5b28d05e))
  (gr_line (start 157 112) (end 158 111)
    (stroke (width 0.15) (type default)) (layer "Margin") (tstamp 4e7c2dc9-0fcb-4de0-a204-35318fe57fd1))
  (gr_line (start 222 112) (end 222 117)
    (stroke (width 0.15) (type default)) (layer "Margin") (tstamp 5cada0bc-a50f-4177-8e27-33002e8c70bb))
  (gr_line (start 158 111) (end 221 111)
    (stroke (width 0.15) (type default)) (layer "Margin") (tstamp 6166130c-1565-4e3c-bf67-9ec653dc11a8))
  (gr_line (start 158 118) (end 157 117)
    (stroke (width 0.15) (type default)) (layer "Margin") (tstamp c09088ef-de31-41ca-a165-79cb5f98b4b7))
  (gr_line (start 221 118) (end 158 118)
    (stroke (width 0.15) (type default)) (layer "Margin") (tstamp e8d56eb8-b358-4f8d-9ec3-007ce19fe319))
  (gr_line (start 157 117) (end 157 112)
    (stroke (width 0.15) (type default)) (layer "Margin") (tstamp f27566da-1659-4dfe-aff8-d70a26eff5de))
  (gr_line (start 222 117) (end 221 118)
    (stroke (width 0.15) (type default)) (layer "Margin") (tstamp f62addf1-b291-4a77-a48b-43683ead3f98))
  (gr_text "VCCA - GND" (at 221 112.5 270) (layer "F.SilkS") (tstamp 4e2bb7cd-0a5e-40dd-b7d3-f7b6610e87d6)
    (effects (font (size 0.5 0.5) (thickness 0.125)) (justify left bottom))
  )
  (gr_text "VCCB - GND" (at 157.5 112.5 -90) (layer "F.SilkS") (tstamp d76aacde-4aa3-4507-b64c-81b38dd895ec)
    (effects (font (size 0.5 0.5) (thickness 0.125)) (justify left bottom))
  )
  (gr_text "!" (at 203.221819 113.232009) (layer "F.SilkS") (tstamp de12cc5c-f4e3-404f-998e-5c6b426f294e)
    (effects (font (size 0.8 0.8) (thickness 0.2) bold) (justify left bottom))
  )
  (gr_text "UDel Cubelab 2023\nLaser Board Rev1\nGalen Nare" (at 190.5 116) (layer "F.SilkS") (tstamp f64627a7-aef1-4ced-87cf-1aea606640b6)
    (effects (font (size 0.65 0.65) (thickness 0.125)) (justify bottom))
  )
  (dimension (type aligned) (layer "Dwgs.User") (tstamp 13c236ee-4f1f-46a0-b69c-3ae0e5959099)
    (pts (xy 159.2 113.5) (xy 162.5 113.5))
    (height -5)
    (gr_text "3.3" (at 160.85 107.35) (layer "Dwgs.User") (tstamp 13c236ee-4f1f-46a0-b69c-3ae0e5959099)
      (effects (font (size 1 1) (thickness 0.15)))
    )
    (format (prefix "") (suffix "") (units 3) (units_format 0) (precision 4) suppress_zeroes)
    (style (thickness 0.15) (arrow_length 1.27) (text_position_mode 0) (extension_height 0.58642) (extension_offset 0.5) keep_text_aligned)
  )
  (dimension (type aligned) (layer "Dwgs.User") (tstamp 2cf2795d-518e-408b-96d3-5846cee0ceb1)
    (pts (xy 222 113.5) (xy 219.8 113.5))
    (height 3)
    (gr_text "2.2" (at 220.9 109.35) (layer "Dwgs.User") (tstamp 2cf2795d-518e-408b-96d3-5846cee0ceb1)
      (effects (font (size 1 1) (thickness 0.15)))
    )
    (format (prefix "") (suffix "") (units 3) (units_format 0) (precision 4) suppress_zeroes)
    (style (thickness 0.15) (arrow_length 1.27) (text_position_mode 0) (extension_height 0.58642) (extension_offset 0.5) keep_text_aligned)
  )
  (dimension (type aligned) (layer "Dwgs.User") (tstamp 39df61a6-1aab-4068-add6-9a1ddb8745a8)
    (pts (xy 173.5 113.5) (xy 184.5 113.5))
    (height -7)
    (gr_text "11" (at 179 105.35) (layer "Dwgs.User") (tstamp 39df61a6-1aab-4068-add6-9a1ddb8745a8)
      (effects (font (size 1 1) (thickness 0.15)))
    )
    (format (prefix "") (suffix "") (units 3) (units_format 0) (precision 4) suppress_zeroes)
    (style (thickness 0.15) (arrow_length 1.27) (text_position_mode 0) (extension_height 0.58642) (extension_offset 0.5) keep_text_aligned)
  )
  (dimension (type aligned) (layer "Dwgs.User") (tstamp 9d2a41ad-cc36-49c4-a975-1dbe16a1ac48)
    (pts (xy 157 112) (xy 222 112))
    (height -7.5)
    (gr_text "65" (at 189 103.5) (layer "Dwgs.User") (tstamp 9d2a41ad-cc36-49c4-a975-1dbe16a1ac48)
      (effects (font (size 1 1) (thickness 0.15)))
    )
    (format (prefix "") (suffix "") (units 3) (units_format 0) (precision 4) suppress_zeroes)
    (style (thickness 0.15) (arrow_length 1.27) (text_position_mode 2) (extension_height 0.58642) (extension_offset 0.5) keep_text_aligned)
  )
  (dimension (type aligned) (layer "Dwgs.User") (tstamp 9d6ec8f2-cf56-4b3f-b468-e56a91344da7)
    (pts (xy 194.5 113.5) (xy 205.5 113.5))
    (height -7)
    (gr_text "11" (at 200 105.35) (layer "Dwgs.User") (tstamp 9d6ec8f2-cf56-4b3f-b468-e56a91344da7)
      (effects (font (size 1 1) (thickness 0.15)))
    )
    (format (prefix "") (suffix "") (units 3) (units_format 0) (precision 4) suppress_zeroes)
    (style (thickness 0.15) (arrow_length 1.27) (text_position_mode 0) (extension_height 0.58642) (extension_offset 0.5) keep_text_aligned)
  )
  (dimension (type aligned) (layer "Dwgs.User") (tstamp a42ad16d-1721-4297-bea6-babbaec53dfd)
    (pts (xy 158 118) (xy 158 111))
    (height -3.5)
    (gr_text "7" (at 153.35 114.5 90) (layer "Dwgs.User") (tstamp a42ad16d-1721-4297-bea6-babbaec53dfd)
      (effects (font (size 1 1) (thickness 0.15)))
    )
    (format (prefix "") (suffix "") (units 3) (units_format 0) (precision 4) suppress_zeroes)
    (style (thickness 0.15) (arrow_length 1.27) (text_position_mode 0) (extension_height 0.58642) (extension_offset 0.5) keep_text_aligned)
  )
  (dimension (type aligned) (layer "Dwgs.User") (tstamp e0e939f5-e4c2-4c38-8f73-b15702739ea0)
    (pts (xy 162.5 113.5) (xy 173.5 113.5))
    (height -7)
    (gr_text "11" (at 168 105.35) (layer "Dwgs.User") (tstamp e0e939f5-e4c2-4c38-8f73-b15702739ea0)
      (effects (font (size 1 1) (thickness 0.15)))
    )
    (format (prefix "") (suffix "") (units 3) (units_format 0) (precision 4) suppress_zeroes)
    (style (thickness 0.15) (arrow_length 1.27) (text_position_mode 0) (extension_height 0.58642) (extension_offset 0.5) keep_text_aligned)
  )
  (dimension (type aligned) (layer "Dwgs.User") (tstamp f36b2b85-1593-4dbf-8c01-8f24aa3e2181)
    (pts (xy 205.5 113.5) (xy 216.5 113.5))
    (height -7)
    (gr_text "11" (at 211 105.35) (layer "Dwgs.User") (tstamp f36b2b85-1593-4dbf-8c01-8f24aa3e2181)
      (effects (font (size 1 1) (thickness 0.15)))
    )
    (format (prefix "") (suffix "") (units 3) (units_format 0) (precision 4) suppress_zeroes)
    (style (thickness 0.15) (arrow_length 1.27) (text_position_mode 0) (extension_height 0.58642) (extension_offset 0.5) keep_text_aligned)
  )
  (dimension (type aligned) (layer "Dwgs.User") (tstamp f484e080-2695-46d2-a1d2-94f9f64f658a)
    (pts (xy 159.2 113.5) (xy 157 113.5))
    (height 3.5)
    (gr_text "2.2" (at 158.1 108.85) (layer "Dwgs.User") (tstamp f484e080-2695-46d2-a1d2-94f9f64f658a)
      (effects (font (size 1 1) (thickness 0.15)))
    )
    (format (prefix "") (suffix "") (units 3) (units_format 0) (precision 4) suppress_zeroes)
    (style (thickness 0.15) (arrow_length 1.27) (text_position_mode 0) (extension_height 0.58642) (extension_offset 0.5) keep_text_aligned)
  )
  (dimension (type aligned) (layer "Dwgs.User") (tstamp f718d4f0-70c9-43cf-b972-e236257e0ac7)
    (pts (xy 216.5 113.5) (xy 219.8 113.5))
    (height -5)
    (gr_text "3.3" (at 218.15 107.35) (layer "Dwgs.User") (tstamp f718d4f0-70c9-43cf-b972-e236257e0ac7)
      (effects (font (size 1 1) (thickness 0.15)))
    )
    (format (prefix "") (suffix "") (units 3) (units_format 0) (precision 4) suppress_zeroes)
    (style (thickness 0.15) (arrow_length 1.27) (text_position_mode 0) (extension_height 0.58642) (extension_offset 0.5) keep_text_aligned)
  )

  (segment (start 163.5 113.46) (end 173.46 113.46) (width 0.768) (layer "F.Cu") (net 1) (tstamp 1726cdf2-aca1-44dc-9011-7d24132ea49c))
  (segment (start 173.46 113.46) (end 173.5 113.5) (width 0.768) (layer "F.Cu") (net 1) (tstamp 618d9f19-b29e-41d7-a965-62004d015a14))
  (segment (start 163.46 113.5) (end 163.5 113.46) (width 0.768) (layer "F.Cu") (net 1) (tstamp 8e2ffa7b-b94f-4725-8bca-a2b2114ce83e))
  (segment (start 173.5 113.5) (end 184.5 113.5) (width 0.768) (layer "F.Cu") (net 1) (tstamp bc1f64a8-8d9c-48a5-a486-e52ceb11f3ab))
  (segment (start 159.5 113.5) (end 163.46 113.5) (width 0.768) (layer "F.Cu") (net 1) (tstamp e51a31ed-7a70-45ef-9ff3-7b24a23020f8))
  (segment (start 216 113.5) (end 220 113.5) (width 0.768) (layer "F.Cu") (net 3) (tstamp 012205ee-89a1-49a0-acde-9a9bdb40d371))
  (segment (start 197 113.5) (end 207 113.5) (width 0.768) (layer "F.Cu") (net 3) (tstamp 28a0727d-8f72-44c8-8604-ef28059517b4))
  (segment (start 207 113.5) (end 216 113.5) (width 0.768) (layer "F.Cu") (net 3) (tstamp cae52533-c46e-4247-a28c-28f941731213))

  (zone (net 2) (net_name "GND") (layer "B.Cu") (tstamp 88da5e2d-8236-4110-bf7c-8221bdc3b636) (hatch edge 0.5)
    (connect_pads yes (clearance 0.25))
    (min_thickness 0.25) (filled_areas_thickness no)
    (fill yes (thermal_gap 0.5) (thermal_bridge_width 0.5))
    (polygon
      (pts
        (xy 223 110.5)
        (xy 156.5 110.5)
        (xy 156.5 118.5)
        (xy 223 118.5)
      )
    )
    (filled_polygon
      (layer "B.Cu")
      (pts
        (xy 220.984404 111.095185)
        (xy 221.005046 111.111819)
        (xy 221.888181 111.994954)
        (xy 221.921666 112.056277)
        (xy 221.9245 112.082635)
        (xy 221.9245 116.917364)
        (xy 221.904815 116.984403)
        (xy 221.888181 117.005045)
        (xy 221.005045 117.888181)
        (xy 220.943722 117.921666)
        (xy 220.917364 117.9245)
        (xy 158.082635 117.9245)
        (xy 158.015596 117.904815)
        (xy 157.994954 117.888181)
        (xy 157.111819 117.005045)
        (xy 157.078334 116.943722)
        (xy 157.0755 116.917364)
        (xy 157.0755 114.374678)
        (xy 158.3995 114.374678)
        (xy 158.414032 114.447735)
        (xy 158.414033 114.447739)
        (xy 158.414034 114.44774)
        (xy 158.469399 114.530601)
        (xy 158.514147 114.5605)
        (xy 158.55226 114.585966)
        (xy 158.552264 114.585967)
        (xy 158.625321 114.600499)
        (xy 158.625324 114.6005)
        (xy 158.625326 114.6005)
        (xy 160.374676 114.6005)
        (xy 160.374677 114.600499)
        (xy 160.44774 114.585966)
        (xy 160.530601 114.530601)
        (xy 160.585966 114.44774)
        (xy 160.6005 114.374674)
        (xy 160.6005 114.334678)
        (xy 162.3995 114.334678)
        (xy 162.414032 114.407735)
        (xy 162.414033 114.407739)
        (xy 162.414034 114.40774)
        (xy 162.469399 114.490601)
        (xy 162.55226 114.545966)
        (xy 162.552264 114.545967)
        (xy 162.625321 114.560499)
        (xy 162.625324 114.5605)
        (xy 162.625326 114.5605)
        (xy 164.374676 114.5605)
        (xy 164.374677 114.560499)
        (xy 164.44774 114.545966)
        (xy 164.530601 114.490601)
        (xy 164.585966 114.40774)
        (xy 164.592543 114.374678)
        (xy 172.3995 114.374678)
        (xy 172.414032 114.447735)
        (xy 172.414033 114.447739)
        (xy 172.414034 114.44774)
        (xy 172.469399 114.530601)
        (xy 172.514147 114.5605)
        (xy 172.55226 114.585966)
        (xy 172.552264 114.585967)
        (xy 172.625321 114.600499)
        (xy 172.625324 114.6005)
        (xy 172.625326 114.6005)
        (xy 174.374676 114.6005)
        (xy 174.374677 114.600499)
        (xy 174.44774 114.585966)
        (xy 174.530601 114.530601)
        (xy 174.585966 114.44774)
        (xy 174.600499 114.374678)
        (xy 183.3995 114.374678)
        (xy 183.414032 114.447735)
        (xy 183.414033 114.447739)
        (xy 183.414034 114.44774)
        (xy 183.469399 114.530601)
        (xy 183.514147 114.5605)
        (xy 183.55226 114.585966)
        (xy 183.552264 114.585967)
        (xy 183.625321 114.600499)
        (xy 183.625324 114.6005)
        (xy 183.625326 114.6005)
        (xy 185.374676 114.6005)
        (xy 185.374677 114.600499)
        (xy 185.44774 114.585966)
        (xy 185.530601 114.530601)
        (xy 185.585966 114.44774)
        (xy 185.600499 114.374678)
        (xy 195.8995 114.374678)
        (xy 195.914032 114.447735)
        (xy 195.914033 114.447739)
        (xy 195.914034 114.44774)
        (xy 195.969399 114.530601)
        (xy 196.014147 114.5605)
        (xy 196.05226 114.585966)
        (xy 196.052264 114.585967)
        (xy 196.125321 114.600499)
        (xy 196.125324 114.6005)
        (xy 196.125326 114.6005)
        (xy 197.874676 114.6005)
        (xy 197.874677 114.600499)
        (xy 197.94774 114.585966)
        (xy 198.030601 114.530601)
        (xy 198.085966 114.44774)
        (xy 198.100499 114.374678)
        (xy 205.8995 114.374678)
        (xy 205.914032 114.447735)
        (xy 205.914033 114.447739)
        (xy 205.914034 114.44774)
        (xy 205.969399 114.530601)
        (xy 206.014147 114.5605)
        (xy 206.05226 114.585966)
        (xy 206.052264 114.585967)
        (xy 206.125321 114.600499)
        (xy 206.125324 114.6005)
        (xy 206.125326 114.6005)
        (xy 207.874676 114.6005)
        (xy 207.874677 114.600499)
        (xy 207.94774 114.585966)
        (xy 208.030601 114.530601)
        (xy 208.085966 114.44774)
        (xy 208.100499 114.374678)
        (xy 214.8995 114.374678)
        (xy 214.914032 114.447735)
        (xy 214.914033 114.447739)
        (xy 214.914034 114.44774)
        (xy 214.969399 114.530601)
        (xy 215.014147 114.5605)
        (xy 215.05226 114.585966)
        (xy 215.052264 114.585967)
        (xy 215.125321 114.600499)
        (xy 215.125324 114.6005)
        (xy 215.125326 114.6005)
        (xy 216.874676 114.6005)
        (xy 216.874677 114.600499)
        (xy 216.94774 114.585966)
        (xy 217.030601 114.530601)
        (xy 217.085966 114.44774)
        (xy 217.100499 114.374678)
        (xy 218.8995 114.374678)
        (xy 218.914032 114.447735)
        (xy 218.914033 114.447739)
        (xy 218.914034 114.44774)
        (xy 218.969399 114.530601)
        (xy 219.014147 114.5605)
        (xy 219.05226 114.585966)
        (xy 219.052264 114.585967)
        (xy 219.125321 114.600499)
        (xy 219.125324 114.6005)
        (xy 219.125326 114.6005)
        (xy 220.874676 114.6005)
        (xy 220.874677 114.600499)
        (xy 220.94774 114.585966)
        (xy 221.030601 114.530601)
        (xy 221.085966 114.44774)
        (xy 221.1005 114.374674)
        (xy 221.1005 112.625326)
        (xy 221.1005 112.625323)
        (xy 221.100499 112.625321)
        (xy 221.085967 112.552264)
        (xy 221.085966 112.55226)
        (xy 221.059239 112.51226)
        (xy 221.030601 112.469399)
        (xy 220.94774 112.414034)
        (xy 220.947739 112.414033)
        (xy 220.947735 112.414032)
        (xy 220.874677 112.3995)
        (xy 220.874674 112.3995)
        (xy 219.125326 112.3995)
        (xy 219.125323 112.3995)
        (xy 219.052264 112.414032)
        (xy 219.05226 112.414033)
        (xy 218.969399 112.469399)
        (xy 218.914033 112.55226)
        (xy 218.914032 112.552264)
        (xy 218.8995 112.625321)
        (xy 218.8995 114.374678)
        (xy 217.100499 114.374678)
        (xy 217.1005 114.374674)
        (xy 217.1005 112.625326)
        (xy 217.1005 112.625323)
        (xy 217.100499 112.625321)
        (xy 217.085967 112.552264)
        (xy 217.085966 112.55226)
        (xy 217.059239 112.51226)
        (xy 217.030601 112.469399)
        (xy 216.94774 112.414034)
        (xy 216.947739 112.414033)
        (xy 216.947735 112.414032)
        (xy 216.874677 112.3995)
        (xy 216.874674 112.3995)
        (xy 215.125326 112.3995)
        (xy 215.125323 112.3995)
        (xy 215.052264 112.414032)
        (xy 215.05226 112.414033)
        (xy 214.969399 112.469399)
        (xy 214.914033 112.55226)
        (xy 214.914032 112.552264)
        (xy 214.8995 112.625321)
        (xy 214.8995 114.374678)
        (xy 208.100499 114.374678)
        (xy 208.1005 114.374674)
        (xy 208.1005 112.625326)
        (xy 208.1005 112.625323)
        (xy 208.100499 112.625321)
        (xy 208.085967 112.552264)
        (xy 208.085966 112.55226)
        (xy 208.059239 112.51226)
        (xy 208.030601 112.469399)
        (xy 207.94774 112.414034)
        (xy 207.947739 112.414033)
        (xy 207.947735 112.414032)
        (xy 207.874677 112.3995)
        (xy 207.874674 112.3995)
        (xy 206.125326 112.3995)
        (xy 206.125323 112.3995)
        (xy 206.052264 112.414032)
        (xy 206.05226 112.414033)
        (xy 205.969399 112.469399)
        (xy 205.914033 112.55226)
        (xy 205.914032 112.552264)
        (xy 205.8995 112.625321)
        (xy 205.8995 114.374678)
        (xy 198.100499 114.374678)
        (xy 198.1005 114.374674)
        (xy 198.1005 112.625326)
        (xy 198.1005 112.625323)
        (xy 198.100499 112.625321)
        (xy 198.085967 112.552264)
        (xy 198.085966 112.55226)
        (xy 198.059239 112.51226)
        (xy 198.030601 112.469399)
        (xy 197.94774 112.414034)
        (xy 197.947739 112.414033)
        (xy 197.947735 112.414032)
        (xy 197.874677 112.3995)
        (xy 197.874674 112.3995)
        (xy 196.125326 112.3995)
        (xy 196.125323 112.3995)
        (xy 196.052264 112.414032)
        (xy 196.05226 112.414033)
        (xy 195.969399 112.469399)
        (xy 195.914033 112.55226)
        (xy 195.914032 112.552264)
        (xy 195.8995 112.625321)
        (xy 195.8995 114.374678)
        (xy 185.600499 114.374678)
        (xy 185.6005 114.374674)
        (xy 185.6005 112.625326)
        (xy 185.6005 112.625323)
        (xy 185.600499 112.625321)
        (xy 185.585967 112.552264)
        (xy 185.585966 112.55226)
        (xy 185.559239 112.51226)
        (xy 185.530601 112.469399)
        (xy 185.44774 112.414034)
        (xy 185.447739 112.414033)
        (xy 185.447735 112.414032)
        (xy 185.374677 112.3995)
        (xy 185.374674 112.3995)
        (xy 183.625326 112.3995)
        (xy 183.625323 112.3995)
        (xy 183.552264 112.414032)
        (xy 183.55226 112.414033)
        (xy 183.469399 112.469399)
        (xy 183.414033 112.55226)
        (xy 183.414032 112.552264)
        (xy 183.3995 112.625321)
        (xy 183.3995 114.374678)
        (xy 174.600499 114.374678)
        (xy 174.6005 114.374674)
        (xy 174.6005 112.625326)
        (xy 174.6005 112.625323)
        (xy 174.600499 112.625321)
        (xy 174.585967 112.552264)
        (xy 174.585966 112.55226)
        (xy 174.559239 112.51226)
        (xy 174.530601 112.469399)
        (xy 174.44774 112.414034)
        (xy 174.447739 112.414033)
        (xy 174.447735 112.414032)
        (xy 174.374677 112.3995)
        (xy 174.374674 112.3995)
        (xy 172.625326 112.3995)
        (xy 172.625323 112.3995)
        (xy 172.552264 112.414032)
        (xy 172.55226 112.414033)
        (xy 172.469399 112.469399)
        (xy 172.414033 112.55226)
        (xy 172.414032 112.552264)
        (xy 172.3995 112.625321)
        (xy 172.3995 114.374678)
        (xy 164.592543 114.374678)
        (xy 164.6005 114.334674)
        (xy 164.6005 112.585326)
        (xy 164.6005 112.585323)
        (xy 164.600499 112.585321)
        (xy 164.585967 112.512264)
        (xy 164.585966 112.51226)
        (xy 164.530601 112.429399)
        (xy 164.44774 112.374034)
        (xy 164.447739 112.374033)
        (xy 164.447735 112.374032)
        (xy 164.374677 112.3595)
        (xy 164.374674 112.3595)
        (xy 162.625326 112.3595)
        (xy 162.625323 112.3595)
        (xy 162.552264 112.374032)
        (xy 162.55226 112.374033)
        (xy 162.469399 112.429399)
        (xy 162.414033 112.51226)
        (xy 162.414032 112.512264)
        (xy 162.3995 112.585321)
        (xy 162.3995 114.334678)
        (xy 160.6005 114.334678)
        (xy 160.6005 112.625326)
        (xy 160.6005 112.625323)
        (xy 160.600499 112.625321)
        (xy 160.585967 112.552264)
        (xy 160.585966 112.55226)
        (xy 160.559239 112.51226)
        (xy 160.530601 112.469399)
        (xy 160.44774 112.414034)
        (xy 160.447739 112.414033)
        (xy 160.447735 112.414032)
        (xy 160.374677 112.3995)
        (xy 160.374674 112.3995)
        (xy 158.625326 112.3995)
        (xy 158.625323 112.3995)
        (xy 158.552264 112.414032)
        (xy 158.55226 112.414033)
        (xy 158.469399 112.469399)
        (xy 158.414033 112.55226)
        (xy 158.414032 112.552264)
        (xy 158.3995 112.625321)
        (xy 158.3995 114.374678)
        (xy 157.0755 114.374678)
        (xy 157.0755 112.082635)
        (xy 157.095185 112.015596)
        (xy 157.111819 111.994954)
        (xy 157.994954 111.111819)
        (xy 158.056277 111.078334)
        (xy 158.082635 111.0755)
        (xy 220.917365 111.0755)
      )
    )
  )
)
