(footprint "1X02" (version 20221018) (generator pcbnew)
  (layer "F.Cu")
  (descr "<b>PIN HEADER</b>")
  (fp_text reference "REF**" (at -2.6162 -1.8288) (layer "F.SilkS")
      (effects (font (size 1.143 1.143) (thickness 0.127)) (justify left bottom))
    (tstamp ef9414b8-aaea-4d8f-b664-df34d637ad6c)
  )
  (fp_text value "1X02" (at -2.54 3.175) (layer "F.Fab")
      (effects (font (size 1.1684 1.1684) (thickness 0.1016)) (justify left bottom))
    (tstamp ba7ef016-112f-4407-a051-3a3b786aae97)
  )
  (fp_line (start -2.54 -0.635) (end -2.54 0.635)
    (stroke (width 0.1524) (type solid)) (layer "F.SilkS") (tstamp ee0a83f3-8b69-466b-b15c-29047f2da300))
  (fp_line (start -2.54 0.635) (end -1.905 1.27)
    (stroke (width 0.1524) (type solid)) (layer "F.SilkS") (tstamp 6ca7f564-e673-43d2-9397-48b1f6b319a1))
  (fp_line (start -1.905 -1.27) (end -2.54 -0.635)
    (stroke (width 0.1524) (type solid)) (layer "F.SilkS") (tstamp b8622d88-461d-4a35-b872-f6cafbadb9df))
  (fp_line (start -1.905 -1.27) (end -0.635 -1.27)
    (stroke (width 0.1524) (type solid)) (layer "F.SilkS") (tstamp 3826efc1-0130-4dfc-82c1-bb149e7033a2))
  (fp_line (start -0.635 -1.27) (end 0 -0.635)
    (stroke (width 0.1524) (type solid)) (layer "F.SilkS") (tstamp 93f150a2-852f-4d94-9c8b-7a3786307d94))
  (fp_line (start -0.635 1.27) (end -1.905 1.27)
    (stroke (width 0.1524) (type solid)) (layer "F.SilkS") (tstamp d2fbdfb7-b03b-4b70-9c5d-486633559482))
  (fp_line (start 0 -0.635) (end 0 0.635)
    (stroke (width 0.1524) (type solid)) (layer "F.SilkS") (tstamp 471b13cb-17fa-49f3-a5eb-cd10b024815b))
  (fp_line (start 0 -0.635) (end 0.635 -1.27)
    (stroke (width 0.1524) (type solid)) (layer "F.SilkS") (tstamp 9368d888-201e-4d94-982e-ffbc3152d0c7))
  (fp_line (start 0 0.635) (end -0.635 1.27)
    (stroke (width 0.1524) (type solid)) (layer "F.SilkS") (tstamp c8f7a73d-55b0-4a8e-a042-d242f6539822))
  (fp_line (start 0.635 -1.27) (end 1.905 -1.27)
    (stroke (width 0.1524) (type solid)) (layer "F.SilkS") (tstamp 25ee3332-7027-4c6a-b465-3601931969e4))
  (fp_line (start 0.635 1.27) (end 0 0.635)
    (stroke (width 0.1524) (type solid)) (layer "F.SilkS") (tstamp edf9e513-4608-4889-a520-917473c60870))
  (fp_line (start 1.905 -1.27) (end 2.54 -0.635)
    (stroke (width 0.1524) (type solid)) (layer "F.SilkS") (tstamp cd572fc4-b3cf-486c-acb4-64889d493814))
  (fp_line (start 1.905 1.27) (end 0.635 1.27)
    (stroke (width 0.1524) (type solid)) (layer "F.SilkS") (tstamp a2d22766-8610-4a72-aca4-4493ba7eda93))
  (fp_line (start 2.54 -0.635) (end 2.54 0.635)
    (stroke (width 0.1524) (type solid)) (layer "F.SilkS") (tstamp 9bd1b9cd-2c11-4696-89c7-59b2c266e3f2))
  (fp_line (start 2.54 0.635) (end 1.905 1.27)
    (stroke (width 0.1524) (type solid)) (layer "F.SilkS") (tstamp 00d802d6-2c40-45d3-9acc-8fce88e3c638))
  (fp_poly
    (pts
      (xy -1.524 0.254)
      (xy -1.016 0.254)
      (xy -1.016 -0.254)
      (xy -1.524 -0.254)
    )

    (stroke (width 0) (type default)) (fill solid) (layer "F.Fab") (tstamp b18a4a30-05d4-479f-b4b0-501ad2de0c6e))
  (fp_poly
    (pts
      (xy 1.016 0.254)
      (xy 1.524 0.254)
      (xy 1.524 -0.254)
      (xy 1.016 -0.254)
    )

    (stroke (width 0) (type default)) (fill solid) (layer "F.Fab") (tstamp c84e0455-74c6-4360-ba4a-240a511a519b))
  (pad "1" thru_hole oval (at -1.27 0 90) (size 3.048 1.524) (drill 1.016) (layers "*.Cu" "*.Mask")
    (solder_mask_margin 0.0635) (thermal_bridge_angle 45) (tstamp b45fa2da-b402-40a3-b768-751b065a4d07))
  (pad "2" thru_hole oval (at 1.27 0 90) (size 3.048 1.524) (drill 1.016) (layers "*.Cu" "*.Mask")
    (solder_mask_margin 0.0635) (thermal_bridge_angle 45) (tstamp 27517d17-6580-4866-93bf-4da5a72b636a))
)
